stim	ans.correct	ans	is.correct	rt
c01p01q01	3	3	1	23505.07
c01p01q02	2	2	1	4832.649
c01p01q03	3	3	1	4870.168
c01p01q04	1	1	1	8920.233
c01p01q05	2	2	1	3360.97
c01p01q06	4	2	0	4872.83
c01p01q07	2	2	1	7314.2
c01p02q01	2	4	0	19295.506
c01p03q01	2	B	0	25435.862
c01p04q01	3	3	1	4601.032
c01p04q02	2	2	1	4853.246
c02p01q01	4	4	1	9492.904
c02p01q02	4	4	1	6353.73
c02p03q01	2	2	1	5836.154
c02p04q01	1	1	1	9540.018
c02p05q01	2	2	1	9401.564
c03p01q01	4	4	1	12197.176
c03p01q02	2	2	1	7410.25
c03p02q01	2	2	1	7166.398
c03p02q02	2	2	1	3371.45
c03p02q03	1	1	1	6907.862
c03p04q01	1	1	1	4156.832
c04p02q01	4	2	0	15517.952
c04p03q01	2	2	1	5884.615
c04p05q01	3	1	0	4558.288
c04p05q02	1	1	1	7164.694
c05p01q01	2	2	1	6861.499
c05p02q01	4	4	1	3876.482
c05p02q02	2	2	1	3803.756
c06p01q01	2	3	0	3557.795
c06p01q02	1	1	1	4035.715
c06p01q03	2	1	0	5774.305
c06p02q01	4	4	1	7013.834
c06p02q02	3	1	0	7127.885
c06p02q03	4	4	1	3651.99
c06p03q01	3	3	1	6788.547
c06p03q02	2	2	1	8052.809
c06p03q03	4	4	1	3110.729
c07p01q01	3	1	0	5495.12
c07p01q02	4	4	1	2963.418
c07p01q03	4	4	1	6277.239
c07p02q01	4	3	0	9455.995
c07p02q02	4	4	1	4323.524
c07p03q01	2	2	1	3399.663
c08p01q01	2	2	1	3564.767
c08p01q02	2	2	1	3610.786
c08p01q03	1	1	1	5168.536
c08p01q04	1	1	1	4571.758
c08p01q05	1	1	1	5665.957
c08p03q01	2	B	0	9197.284
c08p03q02	4	4	1	6979.468
c09p01q01	1	B	0	9318.608
c09p01q02	4	4	1	3084.8
c09p02q01	1	1	1	3378.287
c09p02q02	3	3	1	4893.054
c09p02q03	2	2	1	5403.681
c09p03q01	1	1	1	2621.82
c09p04q01	2	2	1	7927.009
c09p05q01	4	4	1	4476.136
c09p05q02	3	3	1	5995.206
c09p05q03	3	3	1	3931.078
c09p05q04	1	1	1	6588.896
