phase	stim	evt	t.phase	t.stim	rt
2	c10p01	PN	251986.37	45108.267	3113.004
2	c10p03	PZ	433459.605	50678.505	2133.844
2	c10p05	SZ	558511.38	29794.271	.
2	c10p06	SZ	624999.884	45641.784	.
2	c11p01	SZ	787980.77	89938.668	.
2	c11p04	PN	995627.339	46301.235	2624.178
2	c12p01	PN	1193487.355	58143.251	2065.512
2	c12p02	SZ	1292311.227	61388.108	.
2	c12p05	SZ	1464485.922	58353.825	.
2	c13z	PZ	1654641.486	174.286	2354.468
2	c13p03	PN	1784350.658	39091.549	1771.361
2	c13p05	SZ	1861256.162	25165.042	.
2	c13p06	SZ	1898272.104	34236.993	.
2	c13p07	SZ	1924920.355	14902.24	.
2	c13p08	SZ	1958577.228	4071.121	.
2	c14z	PZ	2342101.051	225.914	1765.682
2	c14p02	SZ	2476811.215	44207.109	.
2	c14p04	SZ	2586449.062	38836.967	.
2	c15z	PZ	2873649.197	188.994	2437.565
2	c15p03	PN	3001547.08	11836.971	1826.138
2	c15p04	SZ	3115209.995	65235.883	.
2	c15p05	SZ	3136507.322	2451.217	.
2	c15p06	SZ	3204057.87	18028.746	.
2	c15p06	SZ	3205209.601	19180.477	.
2	c16z	PN	3830094.674	187.548	4755.369
2	c16p03	SZ	4013960.394	23257.272	.
2	c16p06	SZ	4197855.698	26141.593	.
2	c17z	PN	4474517.361	193.164	2917.242
2	c17p02	SZ	4546042.848	15704.744	.
2	c17p03	SZ	4582194.587	15888.482	.
2	c17p05	SZ	4659241.474	32028.34	.
2	c17p07	SZ	4713064.477	9235.368	.
2	c18p01	PZ	4876393.196	54623.08	2605.003
2	c18p03	SZ	4967519.035	2829.935	.
2	c18p03	SZ	4987830.096	23140.996	.
2	c18p03	SZ	5016166.542	51477.442	.
2	c18p04	SZ	5043420.582	13644.481	.
