phase	stim	ans.correct	ans	is.correct	rt
1	c01q01b001	3	3	1	8167.779
1	c01q02b002	2	2	1	14354.192
1	c01q03b003	3	3	1	9416.151
1	c01q04b004	4	4	1	4082.913
1	c02q01b005	1	1	1	7437.111
1	c02q02b006	2	2	1	8644.106
1	c02q03b007	3	3	1	6465.559
1	c02q04b008	3	3	1	6246.415
1	c03q01b009	1	3	0	9999.475
1	c03q02b010	2	2	1	9128.874
1	c03q03b011	3	1	0	13749.833
1	c03q04b012	2	3	0	13749.473
1	c04q01b013	1	1	1	12845.001
1	c04q02b014	3	2	0	6547.23
1	c04q03b015	2	2	1	9142.141
1	c04q04b016	3	3	1	3932.221
1	c05q01b017	2	1	0	11803.138
1	c05q02b018	3	4	0	19674.984
1	c05q03b019	3	3	1	4116.631
1	c06q01b020	3	4	0	33459.043
1	c06q02b021	1	2	0	6688.056
1	c06q03b022	1	1	1	7479.72
1	c06q04b023	3	3	1	7059.346
1	c07q01b024	2	2	1	6403.733
1	c07q02b025	1	1	1	3917.825
1	c07q03b026	3	3	1	11325.259
1	c08q01b027	3	3	1	5206.455
1	c08q02b028	2	2	1	5276.114
1	c08q03b029	3	3	1	8597.186
1	c09q01b030	4	4	1	4187.119
1	c09q02b031	3	2	0	5163.407
1	c09q03b032	3	3	1	3713.942
1	c09q04b033	3	3	1	8766.936
2	c10q01b034	4	3	0	14601.363
2	c10q02b035	3	3	1	5416.116
2	c11q01b036	2	2	1	4982.302
2	c11q02b037	3	3	1	3008.199
2	c12q01b038	4	4	1	5101.815
2	c12q02b039	3	4	0	7931.506
2	c12q03b040	4	4	1	4961.593
2	c12q04b041	3	3	1	8596.172
2	c13q01b042	3	3	1	4438.432
2	c13q02b043	4	4	1	4696.864
2	c13q03b044	3	3	1	4249.34
2	c14q01b045	2	3	0	31381.439
2	c14q02b046	2	2	1	14238.621
2	c15q01b047	3	3	1	20101.661
2	c15q02b048	4	1	0	70866.744
2	c15q03b049	1	1	1	16930.616
2	c15q04b050	2	2	1	15744.9
2	c16q01b051	4	4	1	11446.828
2	c16q02b052	3	3	1	7459.475
2	c16q03b053	2	2	1	4177.413
2	c16q04b054	3	2	0	12850.009
2	c16q05b055	2	2	1	13713.282
2	c17q01b056	2	2	1	5312.263
2	c17q02b057	3	3	1	7794.476
2	c17q03b058	3	4	0	14179.263
2	c17q04b059	3	2	0	10831.456
2	c18q01b060	4	2	0	9662.822
2	c18q02b061	3	3	1	13313.465
