t
97449.0
205355.0
171646.0
156227.0
144095.0
142137.0
141854.0
170629.0
181614.0
218980.0
131982.0
170624.0
229258.0
175715.0
158357.0
122394.0
137423.0
213725.0
170187.0
192339.0
129744.0
239324.0
161018.0
227230.0
189824.0
160300.0
195938.0
215310.0
184047.0
169224.0
234067.0
171712.0
189328.0
129036.0
149993.0
189782.0
154129.0
216660.0
158618.0
128065.0
193696.0
197078.0
211771.0
190494.0
125491.0
143489.0
150552.0
141653.0
148167.0
204206.0
155436.0
193429.0
176819.0
148228.0
192989.0
197740.0
197067.0
187920.0
