stim	ans.correct	ans	is.correct	rt
c01p01q01	3	3	1	7101.315
c01p01q02	2	B	0	16285.567
c01p01q03	3	3	1	7588.16
c01p01q04	1	1	1	11428.721
c01p01q05	2	1	0	9598.557
c01p01q06	4	B	0	10770.218
c01p01q07	2	2	1	9073.168
c01p02q01	2	3	0	14684.1
c01p03q01	2	2	1	4402.092
c01p04q01	3	3	1	4964.663
c01p04q02	2	2	1	4990.4
c02p01q01	4	4	1	6901.358
c02p01q02	4	4	1	7038.692
c02p03q01	2	2	1	4811.662
c02p04q01	1	1	1	8309.35
c02p05q01	2	2	1	8422.406
c03p01q01	4	4	1	16194.354
c03p01q02	2	2	1	7236.864
c03p02q01	2	2	1	9203.529
c03p02q02	2	2	1	9253.455
c03p02q03	1	1	1	3669.519
c03p04q01	1	1	1	4515.64
c04p02q01	4	2	0	11951.363
c04p03q01	2	2	1	6998.061
c04p05q01	3	3	1	6014.887
c04p05q02	1	2	0	14692.279
c05p01q01	2	2	1	8885.916
c05p02q01	4	4	1	5697.706
c05p02q02	2	2	1	4901.925
c06p01q01	2	3	0	3464.881
c06p01q02	1	1	1	6396.246
c06p01q03	2	2	1	5146.862
c06p02q01	4	4	1	4471.724
c06p02q02	3	A	0	12412.266
c06p02q03	4	A	0	6156.76
c06p03q01	3	3	1	6976.495
c06p03q02	2	2	1	5109.003
c06p03q03	4	4	1	5148.449
c07p01q01	3	3	1	5935.316
c07p01q02	4	4	1	3712.065
c07p01q03	4	4	1	6788.014
c07p02q01	4	3	0	5467.523
c07p02q02	4	4	1	8515.635
c07p03q01	2	2	1	3785.423
c08p01q01	2	2	1	15276.2
c08p01q02	2	2	1	7275.644
c08p01q03	1	1	1	7492.406
c08p01q04	1	1	1	8423.271
c08p01q05	1	1	1	10891.992
c08p03q01	2	2	1	4714.691
c08p03q02	4	4	1	18284.714
c09p01q01	1	A	0	9240.726
c09p01q02	4	4	1	5622.152
c09p02q01	1	1	1	3692.77
c09p02q02	3	3	1	4064.071
c09p02q03	2	2	1	11267.708
c09p03q01	1	1	1	3387.785
c09p04q01	2	2	1	6235.668
c09p05q01	4	4	1	3132.61
c09p05q02	3	3	1	3181.976
c09p05q03	3	4	0	7005.427
c09p05q04	1	1	1	10300.491
