phase	stim	type	t0	t_disp
1	title	t	102708.077	2501.285
1	c01	t	199415.135	3223.172
1	c01p01	t	203005.069	117655.839
1	c01p01q01	q	321027.16	7113.59
1	c01p01q02	q	328508.162	16297.163
1	c01p01q03	q	345196.169	7600.491
1	c01p01q04	q	353164.164	11440.978
1	c01p01q05	q	364986.159	9610.774
1	c01p01q06	q	374965.163	10781.829
1	c01p01q07	q	386128.163	9085.519
1	c01p02	t	395580.07	108164.843
1	c01p03	t	504112.067	103030.368
1	c01p04	t	607510.068	126181.816
1	c01p02q01	q	734077.168	14696.329
1	c01p03q01	q	749141.166	4414.4
1	c01p04q01	q	753922.176	4976.955
1	c01p04q02	q	759266.211	5002.729
1	c01p05	t	764635.068	11861.9
1	c01q01b001	qe	776864.163	14385.621
1	c01q02b002	qe	791617.162	6240.733
1	c01q03b003	qe	798225.174	8992.445
1	c01q04b004	qe	807594.159	6399.38
1	c02	t	833820.125	3907.971
1	c02p01	t	838094.063	104031.424
1	c02p02	t	942493.065	73968.479
1	c02p03	t	1016848.064	64803.004
1	c02p01q01	q	1082018.16	6913.632
1	c02p01q02	q	1089298.168	7051.034
1	c02p03q01	q	1096717.163	4823.988
1	c02p04	t	1101934.074	92603.158
1	c02p05	t	1194904.064	92437.955
1	c02p06	t	1287710.074	49183.597
1	c02p04q01	q	1337260.175	8321.661
1	c02p05q01	q	1346004.162	8434.719
1	c02q01b005	qe	1354806.169	5384.872
1	c02q02b006	qe	1360557.158	8544.431
1	c02q03b007	qe	1369470.178	9151.31
1	c02q04b008	qe	1378991.167	6415.088
1	c03	t	1532267.106	3533.718
1	c03p01	t	1536202.078	141651.957
1	c03p02	t	1678221.072	134197.965
1	c03p03	t	1812810.065	77109.799
1	c03p04	t	1890287.082	91656.542
1	c03p05	t	1982310.075	35696.364
1	c03p01q01	q	2018377.165	16206.653
1	c03p01q02	q	2034958.164	7249.219
1	c03p02q01	q	2042574.162	9215.853
1	c03p02q02	q	2052157.187	9265.837
1	c03p02q03	q	2061790.164	3681.855
1	c03p04q01	q	2065839.16	4527.946
1	c03q01b009	qe	2070734.171	12878.87
1	c03q02b010	qe	2083980.162	6000.918
1	c03q03b011	qe	2090348.163	11377.714
1	c03q04b012	qe	2102102.164	5598.059
1	c04	t	2113374.123	2022.247
1	c04p01	t	2115762.068	84183.046
1	c04p02	t	2200313.079	115638.951
1	c04p03	t	2316337.073	84771.568
1	c04p02q01	q	2401475.162	11963.588
1	c04p03q01	q	2413805.172	7010.389
1	c04p04	t	2421183.074	127418.99
1	c04p05	t	2548990.068	112809.371
1	c04p05q01	q	2662166.165	6027.181
1	c04p05q02	q	2668561.163	14704.494
1	c04p06	t	2683632.086	40373.585
1	c04q01b013	qe	2724432.166	9839.987
1	c04q02b014	qe	2734639.161	9734.874
1	c04q03b015	qe	2744740.159	6873.743
1	c04q04b016	qe	2751981.162	5185.931
1	c05	t	2903685.139	3733.532
1	c05p01	t	2907787.067	109948.697
1	c05p02	t	3018102.064	107991.878
1	c05p03	t	3126461.063	63765.575
1	c05p01q01	q	3190596.165	8898.238
1	c05p02q01	q	3199862.165	5710.014
1	c05p02q02	q	3205939.167	4914.242
1	c05q01b017	qe	3211221.174	12071.959
1	c05q02b018	qe	3223664.159	10492.28
1	c05q03b019	qe	3234524.166	9184.061
1	c06	t	3247387.119	2127.309
1	c06p01	t	3249882.07	109206.198
1	c06p01q01	q	3359492.16	3477.123
1	c06p01q02	q	3363337.166	6408.569
1	c06p01q03	q	3370113.16	5159.174
1	c06p02	t	3375691.068	105377.555
1	c06p03	t	3481455.065	99212.004
1	c06p02q01	q	3581032.157	4484.071
1	c06p02q02	q	3585884.163	12423.852
1	c06p02q03	q	3598675.16	6168.373
1	c06p03q01	q	3605232.187	6988.838
1	c06p03q02	q	3612587.161	5121.324
1	c06p03q03	q	3618076.161	5160.808
1	c06p04	t	3623603.068	32133.917
1	c06q01b020	qe	3656125.164	42659.908
1	c06q02b021	qe	3699152.161	12865.254
1	c06q03b022	qe	3712387.162	8262.306
1	c06q04b023	qe	3721016.162	6208.027
1	c07	t	3732449.121	1645.209
1	c07p01	t	3734462.067	105191.729
1	c07p02	t	3840064.062	103689.804
1	c07p01q01	q	3944121.157	5947.631
1	c07p01q02	q	3950440.167	3724.37
1	c07p01q03	q	3954532.16	6800.32
1	c07p02q01	q	3961700.157	5479.775
1	c07p02q02	q	3967547.163	8527.942
1	c07p03	t	3976445.068	81322.553
1	c07p04	t	4058135.065	42887.36
1	c07p03q01	q	4101387.169	3797.76
1	c07q01b024	qe	4105552.158	6391.676
1	c07q02b025	qe	4112317.165	5163.293
1	c07q03b026	qe	4117848.158	5567.374
1	c08	t	4219592.16	4635.662
1	c08p01	t	4224595.063	104302.455
1	c08p01q01	q	4329298.173	15288.556
1	c08p01q02	q	4344954.165	7287.964
1	c08p01q03	q	4352609.157	7504.743
1	c08p01q04	q	4360480.166	8435.613
1	c08p01q05	q	4369307.167	10904.425
1	c08p02	t	4380579.064	78876.228
1	c08p03	t	4459855.064	81773.628
1	c08p04	t	4541996.064	66824.148
1	c08p03q01	q	4609189.162	4727.118
1	c08p03q02	q	4614284.168	18297.059
1	c08q01b027	qe	4632948.166	4462.931
1	c08q02b028	qe	4637778.157	9353.255
1	c08q03b029	qe	4647524.161	6536.303
1	c09	t	4660453.134	1964.43
1	c09p01	t	4662785.066	115262.02
1	c09p02	t	4778413.066	83471.915
1	c09p03	t	4862305.078	97074.756
1	c09p01q01	q	4959799.176	9252.352
1	c09p01q02	q	4969418.165	5634.513
1	c09p02q01	q	4975419.165	3705.11
1	c09p02q02	q	4979512.165	4076.395
1	c09p02q03	q	4983956.165	11280.045
1	c09p03q01	q	4995604.172	3400.55
1	c09p04	t	4999373.064	58875.906
1	c09p05	t	5058634.062	72182.371
1	c09p06	t	5131184.073	45599.08
1	c09p04q01	q	5177185.163	6247.972
1	c09p05q01	q	5183800.159	3144.941
1	c09p05q02	q	5187317.178	3194.321
1	c09p05q03	q	5190878.162	7017.629
1	c09p05q04	q	5198263.173	10312.82
1	c09q01b030	qe	5208943.164	5391.891
1	c09q02b031	qe	5214703.162	3791.49
1	c09q03b032	qe	5218862.156	5352.286
1	c09q04b033	qe	5224582.159	4440.571
2	c10z	t	61105.609	4165.61
2	c10p01	t	65640.543	119836.8
2	c10p02	t	185846.538	82845.39
2	c10p03	t	269060.545	89559.708
2	c10p04	t	358989.537	120747.874
2	c10p05	t	480127.553	67425.108
2	c10p06	t	547920.539	77255.404
2	c10p07	t	625592.535	9135.101
2	c10q01b034	qe	635096.669	8232.381
2	c10q02b035	qe	643712.696	3607.255
2	c11z	t	651970.618	3084.281
2	c11p01	t	655423.556	115846.559
2	c11p02	t	771638.543	112261.195
2	c11p03	t	884287.561	74290.895
2	c11p04	t	958948.53	99236.402
2	c11q01b036	qe	1058553.681	6255.61
2	c11q02b037	qe	1065182.682	6020.005
2	c12z	t	1094188.598	2060.035
2	c12p01	t	1096615.55	93918.921
2	c12p02	t	1190902.534	109223.422
2	c12p03	t	1300495.542	72069.059
2	c12p04	t	1372950.553	53893.201
2	c12p05	t	1427212.541	92724.727
2	c12p06	t	1520305.553	4784.464
2	c12q01b038	qe	1525459.673	3824.533
2	c12q02b039	qe	1529681.671	9400.429
2	c12q03b040	qe	1539455.672	4786.884
2	c12q04b041	qe	1544615.679	11730.665
2	c13z	t	1607351.632	2536.944
2	c13p01	t	1610277.547	49866.138
2	c13p02	t	1660512.529	48750.53
2	c13p03	t	1709631.533	44534.992
2	c13p04	t	1754535.539	52197.842
2	c13p05	t	1807153.551	42250.424
2	c13p06	t	1849773.617	75191.438
2	c13p07	t	1925334.544	77275.416
2	c13p08	t	2002978.554	61792.119
2	c13p09	t	2065148.54	52684.831
2	c13q01b042	qe	2118204.677	3533.541
2	c13q02b043	qe	2122112.687	5033.506
2	c13q03b044	qe	2127520.674	3745.555
2	c14z	t	2135198.588	2122.666
2	c14p01	t	2137691.532	136995.722
2	c14p02	t	2275056.539	87509.874
2	c14p03	t	2362935.531	65948.093
2	c14p04	t	2429260.537	83599.131
2	c14p05	t	2513249.532	17993.47
2	c14q01b045	qe	2531612.67	7735.821
2	c14q02b046	qe	2539723.67	6151.489
2	c15z	t	2560878.602	2172.431
2	c15p01	t	2563420.528	72932.264
2	c15p02	t	2636722.536	50502.624
2	c15p03	t	2687594.542	74109.188
2	c15p04	t	2762093.535	97463.638
2	c15p05	t	2859925.539	74974.291
2	c15p06	t	2935268.562	72462.013
2	c15p07	t	3008099.548	67990.082
2	c15p08	t	3076477.537	68667.323
2	c15p09	t	3145514.54	10278.409
2	c15q01b047	qe	3156163.671	7022.203
2	c15q02b048	qe	3163560.671	5609.98
2	c15q03b049	qe	3169568.664	7642.337
2	c15q04b050	qe	3177585.682	7696.457
2	c16z	t	3206885.598	1786.249
2	c16p01	t	3209038.53	65648.745
2	c16p02	t	3275092.542	62618.352
2	c16p03	t	3338079.531	82245.831
2	c16p04	t	3420693.534	64335.226
2	c16p05	t	3485397.545	71150.502
2	c16p06	t	3556936.528	53025.709
2	c16p07	t	3610330.547	33487.628
2	c16q01b051	qe	3644187.69	4872.341
2	c16q02b052	qe	3649433.676	4433.97
2	c16q03b053	qe	3654242.668	4705.318
2	c16q04b054	qe	3659322.689	5016.225
2	c16q05b055	qe	3664713.669	5153.751
2	c17z	t	3674351.615	5354.014
2	c17p01	t	3680080.556	68695.802
2	c17p02	t	3749144.548	64198.715
2	c17p03	t	3813742.534	52560.875
2	c17p04	t	3866673.542	60804.281
2	c17p05	t	3927899.534	57522.352
2	c17p06	t	3985790.536	50364.597
2	c17p07	t	4036524.529	11623.058
2	c17q01b056	qe	4048517.662	6071.447
2	c17q02b057	qe	4054979.667	6690.423
2	c17q03b058	qe	4062044.679	4760.014
2	c17q04b059	qe	4067178.67	4266.686
2	c18z	t	4086951.551	2372.897
2	c18p01	t	4089718.529	75044.715
2	c18p02	t	4165131.535	75261.676
2	c18p03	t	4240760.551	73288.302
2	c18p04	t	4314418.554	59027.651
2	c18p05	t	4373819.544	43969.865
2	c18q01b060	qe	4418159.679	6647.846
2	c18q02b061	qe	4425181.69	3977.016
2	c19z	t	4443340.593	8284.318
2	c19p01	t	4452023.531	91284.701
2	c19p02	t	4543676.544	87694.06
2	c19p03	t	4631774.599	85019.336
2	c19p04	t	4717163.543	77316.491
2	c19p05	t	4794854.537	66217.061
2	c19p06	t	4861439.548	86078.529
2	c19p07	t	4947887.542	59094.529
2	c19p08	t	5007350.546	90013.971
2	c19p09	t	5097752.539	25003.395
2	c19q01b062	qe	5123126.667	3623.366
2	c19q02b063	qe	5127125.675	3431.449
2	c19q03b064	qe	5130931.672	6401.62
2	c19q04b065	qe	5137734.665	9573.126
