    grp sub n_pg pg_per_min    t_sum t_pg_m t_pg_sd
1  b.en 001   91       0.74 02:02:34  01:21   00:43
2  b.en 004   61       0.47 02:10:21  02:08   01:07
3  b.en 006  106       0.77 02:17:31  01:18   00:38
4  b.en 007  112       1.05 01:47:10  00:57   00:30
5  b.en 019   93       0.72 02:10:22  01:24   00:52
6  b.en 049  122       0.87 02:21:04  01:09   00:35
7  b.sp 005   95       0.74 02:08:18  01:21   00:36
8  b.sp 008   81       0.72 01:52:07  01:23   00:37
9  b.sp 009   95       0.66 02:24:27  01:31   00:43
10 b.sp 018   67       0.51 02:11:28  01:58   01:21
11 m.en 014   77       0.63 02:02:58  01:36   00:52
12 m.en 017   92       0.67 02:16:48  01:29   00:44
13 m.en 022  158       1.12 02:20:31  00:53   00:25
14 m.en 030   94       0.64 02:26:20  01:33   00:54
15 m.en 041   38       0.62 01:01:02  01:36   00:36
16 m.en 044   82       0.52 02:36:45  01:55   01:03
17 m.sp 002   57       0.51 01:52:12  01:58   00:50
18 m.sp 003  116       0.93 02:05:18  01:05   00:29
19 m.sp 047   94       0.71 02:11:43  01:24   00:38
