   grp phase n_quest compreh  rt_m rt_sd
1 b.en     1     170    0.78 00:09 00:05
2 b.en     2     152    0.70 00:07 00:04
3 b.sp     1     107    0.66 00:12 00:07
4 b.sp     2      78    0.69 00:10 00:06
5 m.en     1     164    0.67 00:11 00:06
6 m.en     2     141    0.74 00:08 00:04
7 m.sp     1      81    0.74 00:10 00:05
8 m.sp     2      65    0.75 00:11 00:09
