t
96716.0
151277.0
186054.0
205335.0
120882.0
190383.0
158629.0
152366.0
167758.0
179123.0
122374.0
202392.0
167331.0
203239.0
152098.0
161561.0
212050.0
161454.0
180521.0
215426.0
239284.0
194560.0
235690.0
227333.0
170262.0
233597.0
146342.0
165172.0
207601.0
227962.0
143674.0
191166.0
191986.0
176228.0
156631.0
232967.0
236256.0
173181.0
226309.0
202593.0
134688.0
184561.0
139629.0
120153.0
219038.0
211862.0
125952.0
215441.0
120031.0
168569.0
151485.0
