phase	stim	type	t0	t_disp
1	title	t	180512.849	51109.01
1	c01	t	244993.853	7331.885
1	c01p01	t	252693.838	127870.179
1	c01p02	t	380950.835	100459.799
1	c01p01q01	q	481777.939	35601.582
1	c01p01q02	q	517746.94	93148.96
1	c01p01q03	q	611260.935	13147.265
1	c01p01q04	q	624775.964	5148.893
1	c01p02q01	q	630292.936	8740.447
1	c01p03	t	639399.838	106901.415
1	c01p04	t	746668.84	98271.291
1	c01p05	t	845332.837	35365.658
1	c01p03q01	q	881065.939	16312.459
1	c01p04q01	q	897745.939	10313.133
1	c01q01b001	qe	908425.933	9137.956
1	c01q02b002	qe	917948.939	15805.004
1	c01q03b003	qe	934121.937	17064.471
1	c01q04b004	qe	951552.943	10241.05
1	c02	t	971044.852	4588.794
1	c02p01	t	976007.838	106167.591
1	c02p02	t	1082543.844	75276.792
1	c02p01q01	q	1158190.937	10744.774
1	c02p02q01	q	1169302.938	18806.384
1	c02p02q02	q	1188491.932	19786.68
1	c02p02q03	q	1208645.943	17344.214
1	c02p03	t	1226357.836	73268.254
1	c02p04	t	1299993.837	108157.963
1	c02p05	t	1408535.845	114685.815
1	c02p06	t	1523589.84	67582.916
1	c02p03q01	q	1591539.938	16306.228
1	c02p03q02	q	1608212.934	27080.3
1	c02p04q01	q	1635682.952	16209.875
1	c02p06q01	q	1652257.94	18907.968
1	c02p06q02	q	1671530.945	15409.297
1	c02q01b005	qe	1687306.933	9474.732
1	c02q02b006	qe	1697154.943	18241.85
1	c02q03b007	qe	1715763.939	17120.019
1	c02q04b008	qe	1733249.932	24713.702
1	c03	t	1768732.85	4653.787
1	c03p01	t	1773753.843	117310.848
1	c03p02	t	1891432.839	115276.071
1	c03p01q01	q	2007075.945	11561.491
1	c03p01q02	q	2019003.939	4819.601
1	c03p02q01	q	2024197.939	21512.375
1	c03p02q02	q	2046074.945	14643.362
1	c03p03	t	2061084.844	72621.982
1	c03p04	t	2134074.841	84014.543
1	c03p05	t	2218467.836	69003.43
1	c03p04q01	q	2287838.941	20056.745
1	c03p05q01	q	2308261.934	10738.642
1	c03p05q02	q	2319365.936	6098.283
1	c03q01b009	qe	2325835.933	18036.82
1	c03q02b010	qe	2344239.935	8535.661
1	c03q03b011	qe	2353140.937	31946.451
1	c03q04b012	qe	2385453.932	22785.731
1	c04	t	2424698.945	3683.512
1	c04p01	t	2428749.84	102526.285
1	c04p02	t	2531643.837	95230.824
1	c04p03	t	2627241.837	103654.821
1	c04p04	t	2731325.839	101111.724
1	c04p05	t	2832804.839	113336.027
1	c04p01q01	q	2946507.931	6617.05
1	c04p01q02	q	2953492.931	36871.81
1	c04p02q01	q	2990742.946	6173.465
1	c04p02q02	q	2997282.932	11537.109
1	c04p05q01	q	3009186.934	4881.495
1	c04p05q02	q	3014435.935	7880.431
1	c04p06	t	3022686.838	39058.702
1	c04p06q01	q	3062112.937	9954.749
1	c04q01b013	qe	3072435.931	15365.76
1	c04q02b014	qe	3088168.932	14792.728
1	c04q03b015	qe	3103326.933	24811.49
1	c04q04b016	qe	3128503.934	7184.813
1	c05	t	3157442.849	7133.349
1	c05p01	t	3164943.84	103029.215
1	c05p01q01	q	3268350.933	7775.74
1	c05p01q02	q	3276491.933	21274.917
1	c05p01q03	q	3298132.938	3986.216
1	c05p02	t	3302484.835	111838.221
1	c05p03	t	3414757.839	79939.368
1	c05p02q01	q	3495064.943	10321.253
1	c05p02q02	q	3505752.937	5801.728
1	c05p02q03	q	3511920.936	18111.741
1	c05p03q01	q	3530424.931	6233.4
1	c05q01b017	qe	3537023.938	18834.732
1	c05q02b018	qe	3556225.934	17935.748
1	c05q03b019	qe	3574527.932	11465.871
1	c06	t	3593866.847	4116.473
1	c06p01	t	3598350.836	111910.006
1	c06p02	t	3710627.841	97462.828
1	c06p01q01	q	3808457.935	15466.825
1	c06p01q02	q	3824298.933	4465.814
1	c06p01q03	q	3829132.938	4255.468
1	c06p01q04	q	3833753.938	15291.176
1	c06p03	t	3849410.837	127606.017
1	c06p04	t	3977404.835	55115.448
1	c06p02q01	q	4032887.938	4610.293
1	c06p02q02	q	4037865.931	21813.815
1	c06p02q03	q	4060044.932	6292.106
1	c06p03q01	q	4066706.94	11963.837
1	c06p03q02	q	4079036.935	5746.789
1	c06p04q01	q	4085149.941	11778.696
1	c06q01b020	qe	4097294.935	25767.523
1	c06q02b021	qe	4123451.934	34601.595
1	c06q03b022	qe	4158419.933	10563.184
1	c06q04b023	qe	4169350.933	20911.492
1	c07	t	4206341.864	4533.896
1	c07p01	t	4211248.834	126945.272
1	c07p02	t	4338561.836	119837.016
1	c07p03	t	4458766.843	90638.127
1	c07p04	t	4549772.849	53680.168
1	c07p01q01	q	4603845.94	9079.892
1	c07p01q02	q	4613292.933	5024.957
1	c07p01q03	q	4618685.941	3983.93
1	c07p02q01	q	4623036.936	4321.519
1	c07p03q01	q	4627747.943	5377.448
1	c07p03q02	q	4633491.931	2841.819
1	c07p03q03	q	4636698.961	5059.701
1	c07p04q01	q	4642122.937	10306.318
1	c07q01b024	qe	4652811.932	15560.655
1	c07q02b025	qe	4668739.941	19024.17
1	c07q03b026	qe	4688129.944	19921.257
2	c08z	t	134104.389	19686.279
2	c08p01	t	154160.377	139551.066
2	c08p02	t	294080.375	116006.338
2	c08p03	t	410458.377	108297.718
2	c08p04	t	519145.376	103066.61
2	c08q01b027	qe	622580.512	7639.771
2	c08q02b028	qe	630595.498	12160.72
2	c08q03b029	qe	643131.51	16377.468
2	c09z	t	676343.426	10436.548
2	c09p01	t	687151.368	115579.217
2	c09p02	t	803100.372	106629.268
2	c09p03	t	910099.367	109429.403
2	c09p04	t	1019923.373	74518.304
2	c09p05	t	1094811.368	73860.25
2	c09p06	t	1169040.381	67319.443
2	c09p07	t	1236729.359	13301.697
2	c09q01b030	qe	1250405.496	4626.588
2	c09q02b031	qe	1255406.516	7193.71
2	c09q03b032	qe	1262973.516	5147.911
2	c09q04b033	qe	1268493.522	5779.877
2	c10z	t	1281924.378	3385.865
2	c10p01	t	1285680.371	141654.02
2	c10p02	t	1427702.365	123151.51
2	c10p03	t	1551220.373	119663.765
2	c10p04	t	1671267.379	128415.398
2	c10p05	t	1800048.363	89115.105
2	c10p06	t	1889532.367	79981.379
2	c10p07	t	1969883.377	41326.75
2	c10q01b034	qe	2011594.5	15849.323
2	c10q02b035	qe	2027818.498	22361.042
2	c11z	t	2056086.419	4283.822
2	c11p01	t	2060740.372	105421.212
2	c11p02	t	2166558.377	144945.305
2	c11p03	t	2311874.38	76763.67
2	c11p04	t	2389006.375	94815.203
2	c11p05	t	2484190.362	53502.44
2	c11q01b036	qe	2538069.552	6296.981
2	c11q02b037	qe	2544740.496	6282.788
2	c12z	t	2556282.387	4051.296
2	c12p01	t	2560703.36	98750.173
2	c12p02	t	2659832.37	118467.659
2	c12p03	t	2778667.358	80023.065
2	c12p04	t	2859059.37	60224.242
2	c12p05	t	2919653.386	81236.945
2	c12p06	t	3001280.381	45041.599
2	c12q01b038	qe	3046691.497	3702.802
2	c12q02b039	qe	3050767.514	14641.838
2	c12q03b040	qe	3065782.5	10485.329
2	c12q04b041	qe	3076663.497	13938.517
2	c13z	t	3096191.376	3641.442
2	c13p01	t	3100200.372	58048.86
2	c13p02	t	3158617.365	52199.753
2	c13p03	t	3211196.378	54492.158
2	c13p04	t	3266057.376	57454.437
2	c13p05	t	3323881.381	29901.808
2	c13p06	t	3354151.359	68414.984
2	c13p07	t	3422952.361	83694.377
2	c13p08	t	3507016.361	70997.797
2	c13p09	t	3578382.363	91478.515
2	c13p10	t	3670261.376	6879.053
2	c13q01b042	qe	3677514.509	5900.169
2	c13q02b043	qe	3683789.507	5313.341
2	c13q03b044	qe	3689476.508	12850.209
2	c14z	t	3716513.395	2291.984
2	c14p01	t	3719179.362	138200.004
2	c14p02	t	3857748.361	108198.369
2	c14p03	t	3966315.377	73336.128
2	c14p04	t	4040038.367	95643.588
2	c14p05	t	4136050.368	36990.996
2	c14q01b045	qe	4173421.49	22974.045
2	c14q02b046	qe	4196777.519	21864.248
2	c15z	t	4241813.392	4770.89
2	c15p01	t	4246953.378	85455.55
2	c15p02	t	4332777.371	67182.192
2	c15p03	t	4400345.371	106860.921
2	c15p04	t	4507576.387	83581.741
2	c15p05	t	4591526.372	99191.18
2	c15p06	t	4691086.372	69598.341
2	c15p07	t	4761115.368	92384.542
2	c15p08	t	4853912.37	94771.95
2	c15p09	t	4949053.374	54669.012
2	c15q01b047	qe	5004091.503	18913.568
2	c15q02b048	qe	5023403.506	7449.494
2	c15q03b049	qe	5031226.493	37985.845
2	c15q04b050	qe	5069586.524	6681.766
