t
99565.0
227466.0
184589.0
137961.0
208162.0
164890.0
132003.0
143602.0
134708.0
167193.0
225249.0
177985.0
239196.0
200245.0
169711.0
138190.0
211732.0
230232.0
122663.0
191828.0
159324.0
145936.0
155917.0
128238.0
138866.0
232288.0
188973.0
233243.0
173974.0
180827.0
120406.0
210552.0
137037.0
160128.0
226914.0
147461.0
171016.0
220899.0
215606.0
149247.0
209831.0
231387.0
189462.0
225080.0
213483.0
126459.0
139180.0
123139.0
130061.0
205884.0
234229.0
206494.0
210164.0
188406.0
205761.0
155799.0
166528.0
140227.0
175671.0
142176.0
182447.0
