t
94065.0
161769.0
178547.0
135884.0
216145.0
143610.0
237916.0
226991.0
167258.0
188641.0
226252.0
139159.0
178091.0
187395.0
193298.0
130049.0
239139.0
230404.0
215757.0
174367.0
209486.0
151332.0
220683.0
147306.0
228436.0
157273.0
154927.0
167875.0
148738.0
223274.0
163451.0
197436.0
226695.0
235093.0
123379.0
