stim	ans.correct	ans	is.correct	rt
c01p01q01	2	2	1	13927.128
c01p01q02	3	4	0	13052.954
c01p01q03	3	2	0	13930.86
c01p01q04	4	2	0	8013.692
c01p02q01	4	1	0	8996.132
c01p03q01	1	A	0	14960.041
c01p04q01	4	1	0	8288.419
c02p01q01	3	3	1	10381.496
c02p02q01	3	3	1	5825.22
c02p02q02	2	B	0	16147.018
c02p02q03	1	A	0	11169.408
c02p03q01	3	A	0	12166.97
c02p03q02	3	3	1	25955.684
c02p04q01	2	2	1	5795.859
c02p06q01	3	4	0	15362.44
c02p06q02	4	B	0	12690.393
c03p01q01	3	A	0	5365.142
c03p01q02	4	4	1	15707.235
c03p02q01	4	A	0	3523.736
c03p02q02	1	A	0	4157.993
c03p04q01	3	3	1	12693.409
c03p05q01	2	2	1	9457.381
c03p05q02	3	3	1	6052.88
c04p01q01	1	1	1	5716.192
c04p01q02	3	2	0	9643.369
c04p02q01	4	4	1	5764.481
c04p02q02	2	2	1	6065.503
c04p05q01	2	A	0	5436.105
c04p05q02	4	A	0	4317.762
c04p06q01	4	A	0	4180.979
c05p01q01	3	B	0	8868.51
c05p01q02	2	2	1	7571.931
c05p01q03	2	A	0	6337.612
c05p02q01	2	A	0	5654.553
c05p02q02	2	A	0	4118.728
c05p02q03	1	1	1	9644.795
c05p03q01	3	3	1	13273.77
c06p01q01	4	3	0	8857.342
c06p01q02	3	A	0	6804.02
c06p01q03	2	3	0	5837.18
c06p01q04	2	B	0	5333.045
c06p02q01	3	A	0	4779.996
c06p02q02	2	B	0	7729.905
c06p02q03	2	B	0	6068.982
c06p03q01	4	B	0	3322.488
c06p03q02	2	A	0	4212.048
c06p04q01	2	2	1	9509.467
c07p01q01	2	B	0	4862.906
c07p01q02	3	B	0	1964.214
c07p01q03	4	B	0	1196.02
c07p02q01	1	B	0	7474.536
c07p03q01	1	2	0	4325.955
c07p03q02	3	B	0	2633.394
c07p03q03	4	B	0	1484.714
c07p04q01	3	B	0	3315.168
c08p01q01	1	A	0	4044.18
c08p01q02	1	2	0	4186.38
c08p02q01	2	4	0	7914.728
c08p03q01	3	2	0	4764.398
c08p03q02	1	2	0	2888.663
c08p03q03	2	A	0	3755.902
c08p04q01	1	A	0	3747.387
