t
118139.0
170666.0
143906.0
207305.0
215694.0
141875.0
153431.0
148753.0
203952.0
194703.0
136710.0
125327.0
184691.0
195353.0
165794.0
157436.0
154284.0
205780.0
157780.0
211279.0
213083.0
128748.0
184220.0
225851.0
158674.0
123332.0
144790.0
222250.0
189176.0
183761.0
179405.0
158155.0
154835.0
232195.0
121227.0
203023.0
123300.0
209507.0
165099.0
207964.0
206622.0
237245.0
200752.0
188010.0
164413.0
199357.0
211630.0
222875.0
193245.0
238361.0
224548.0
120152.0
149413.0
170025.0
132704.0
220366.0
210371.0
168001.0
200907.0
159983.0
165766.0
174165.0
230054.0
218103.0
235142.0
162997.0
222088.0
141224.0
228762.0
222818.0
200870.0
162558.0
140391.0
134644.0
