stim	ans.correct	ans	is.correct	rt
c01p01q01	3	3	1	10196.307
c01p01q02	2	B	0	14441.137
c01p01q03	3	3	1	14161.736
c01p01q04	1	1	1	14763.173
c01p01q05	2	2	1	6777.433
c01p01q06	4	2	0	4733.758
c01p01q07	2	2	1	5510.391
c01p02q01	2	1	0	14522.228
c01p03q01	2	2	1	8258.91
c01p04q01	3	3	1	3818.017
c01p04q02	2	2	1	11972.427
c02p01q01	4	A	0	15638.408
c02p01q02	4	4	1	6401.073
c02p03q01	2	2	1	5788.134
c02p04q01	1	1	1	4436.054
c02p05q01	2	2	1	6083.476
c03p01q01	4	4	1	9286.016
c03p01q02	2	2	1	5363.884
c03p02q01	2	B	0	13221.03
c03p02q02	2	2	1	5353.237
c03p02q03	1	1	1	7348.658
c03p04q01	1	1	1	4633.341
c04p02q01	4	B	0	10678.951
c04p03q01	2	1	0	5796.232
c04p05q01	3	B	0	18779.329
c04p05q02	1	1	1	5278.402
c05p01q01	2	2	1	10102.733
c05p02q01	4	4	1	3897.575
c05p02q02	2	2	1	16789.144
c06p01q01	2	3	0	3585.374
c06p01q02	1	1	1	10044.08
c06p01q03	2	2	1	8253.495
c06p02q01	4	4	1	8860.028
c06p02q02	3	B	0	6269.517
c06p02q03	4	4	1	4921.575
c06p03q01	3	3	1	6927.771
c06p03q02	2	2	1	4883.168
c06p03q03	4	4	1	5211.535
c07p01q01	3	3	1	6653.575
c07p01q02	4	4	1	3187.335
c07p01q03	4	4	1	8461.506
c07p02q01	4	3	0	6380.566
c07p02q02	4	4	1	6626.923
c07p03q01	2	2	1	4358.174
c08p01q01	2	A	0	6952.261
c08p01q02	2	2	1	5621.541
c08p01q03	1	1	1	4616.317
c08p01q04	1	1	1	13262.509
c08p01q05	1	1	1	8494.96
c08p03q01	2	2	1	4387.951
c08p03q02	4	4	1	7949.141
c09p01q01	1	1	1	5310.154
c09p01q02	4	A	0	6203.33
c09p02q01	1	1	1	9061.858
c09p02q02	3	3	1	5064.416
c09p02q03	2	2	1	4548.439
c09p03q01	1	1	1	3025.169
c09p04q01	2	2	1	8072.393
c09p05q01	4	4	1	3046.715
c09p05q02	3	A	0	5806.768
c09p05q03	3	2	0	6777.982
c09p05q04	1	1	1	13330.353
c10p01q01	3	3	1	5116.628
c10p01q02	4	4	1	2902.942
c10p01q03	4	4	1	4612.781
c10p03q01	1	1	1	3507.572
c10p03q02	2	2	1	3828.969
c10p04q01	3	3	1	6357.095
c10p05q01	1	1	1	4756.322
c11p01q01	4	4	1	3868.857
c11p01q02	2	2	1	4578.539
c11p01q03	2	2	1	5271.624
c11p01q04	3	3	1	4060.216
c11p02q01	2	2	1	6045.806
c11p02q02	3	3	1	5788.033
c11p03q01	4	4	1	4093.759
c11p04q01	1	1	1	3971.538
