phase	stim	evt	t.phase	t.stim	rt
2	c08p01	PN	200949.661	49564.852	3253.586
2	c08p02	PN	359937.385	67595.576	1983.445
2	c08p03	SZ	424225.427	20341.621	.
2	c09z	SZ	595326.937	4608.127	.
2	c09p01	PZ	731408.368	131340.561	2261.552
2	c09p03	PN	886747.957	25909.167	1912.964
2	c09p04	PN	1060900.825	76878.026	4613.871
2	c09p06	SZ	1200456.793	43179.965	.
2	c10p01	SZ	1326318.628	38788.835	.
2	c10p02	PN	1459855.354	17389.562	2933.466
2	c10p03	PZ	1619532.746	51793.951	3277.904
2	c10p04	SZ	1779824.75	81041.958	.
2	c10p06	PN	1958330.122	31453.332	2396.732
2	c11p02	PZ	2286781.215	65268.431	3014.278
2	c11p04	SZ	2509185.797	53133.011	.
2	c12p02	PN	2886870.645	90662.824	2438.621
2	c12p04	PN	3023263.421	26415.631	3141.356
2	c12p05	SZ	3142273.815	54771.016	.
2	c13p04	PN	3499388.025	34483.227	2762.669
2	c13p07	PN	3642258.635	14115.819	3058.355
2	c13p09	PN	3852855.796	37810.006	2466.997
2	c14p02	PN	4112029.422	19612.612	2491.076
2	c14p04	PZ	4343051.717	43755.921	2960.419
2	c15p03	PZ	4671598.5	28984.689	3259.029
2	c15p05	PN	4887748.168	64824.363	2482.688
2	c15p07	PN	5035075.004	13866.208	2289.873
2	c15p09	PN	5263773.152	47174.36	1764.936
