title	t	0	0	0	0	0	0	.	0	0	0
c01	t	1	0	0	0	0	0	.	0	0	0
c01p01	t	1	1	0	0	0	0	.	0	0	0
c01p01q01	q	1	1	1	1	214	4	4312	3	8	10
c01p01q02	q	1	1	2	2	215	4	3142	2	86	94
c01p01q03	q	1	1	3	3	216	4	3214	3	117	128
c01p01q04	q	1	1	4	4	217	4	1243	1	163	185
c01p01q05	q	1	1	5	5	218	3	312	2	210	216
c01p01q06	q	1	1	6	6	219	4	3421	4	218	225
c01p01q07	q	1	1	7	7	220	4	4123	2	353	368
c01p02	t	1	2	0	0	0	0	.	0	0	0
c01p03	t	1	3	0	0	0	0	.	0	0	0
c01p04	t	1	4	0	0	0	0	.	0	0	0
c01p02q01	q	1	2	8	1	221	4	3142	2	790	809
c01p03q01	q	1	3	9	1	222	4	3124	2	901	910
c01p04q01	q	1	4	10	1	223	4	3412	3	1255	1257
c01p04q02	q	1	4	11	2	224	4	2143	2	1508	1511
c01p05	t	1	5	0	0	0	0	.	0	0	0
c01q01b001	qe	1	0	1	0	0	4	.	3	0	0
c01q02b002	qe	1	0	2	0	0	4	.	2	0	0
c01q03b003	qe	1	0	3	0	0	4	.	3	0	0
c01q04b004	qe	1	0	4	0	0	4	.	4	0	0
c02	t	2	0	0	0	0	0	.	0	0	0
c02p01	t	2	1	0	0	0	0	.	0	0	0
c02p02	t	2	2	0	0	0	0	.	0	0	0
c02p03	t	2	3	0	0	0	0	.	0	0	0
c02p01q01	q	2	1	1	1	225	4	3241	4	7	9
c02p01q02	q	2	1	2	2	226	4	2341	4	312	330
c02p03q01	q	2	3	3	1	229	4	4132	2	936	938
c02p04	t	2	4	0	0	0	0	.	0	0	0
c02p05	t	2	5	0	0	0	0	.	0	0	0
c02p06	t	2	6	0	0	0	0	.	0	0	0
c02p04q01	q	2	4	4	1	228	4	1324	1	975	976
c02p05q01	q	2	5	5	1	230	4	3124	2	1366	1370
c02q01b005	qe	2	0	1	0	0	4	.	1	0	0
c02q02b006	qe	2	0	2	0	0	4	.	2	0	0
c02q03b007	qe	2	0	3	0	0	4	.	3	0	0
c02q04b008	qe	2	0	4	0	0	4	.	3	0	0
c03	t	3	0	0	0	0	0	.	0	0	0
c03p01	t	3	1	0	0	0	0	.	0	0	0
c03p02	t	3	2	0	0	0	0	.	0	0	0
c03p03	t	3	3	0	0	0	0	.	0	0	0
c03p04	t	3	4	0	0	0	0	.	0	0	0
c03p05	t	3	5	0	0	0	0	.	0	0	0
c03p01q01	q	3	1	1	1	231	4	3241	4	1	7
c03p01q02	q	3	1	2	2	232	4	3124	2	196	205
c03p02q01	q	3	2	3	1	233	4	4123	2	418	423
c03p02q02	q	3	2	4	2	234	4	2134	2	648	656
c03p02q03	q	3	2	5	3	235	4	1243	1	731	740
c03p04q01	q	3	4	6	1	236	2	12	1	1204	1209
c03q01b009	qe	3	0	1	0	0	4	.	1	0	0
c03q02b010	qe	3	0	2	0	0	4	.	2	0	0
c03q03b011	qe	3	0	3	0	0	4	.	3	0	0
c03q04b012	qe	3	0	4	0	0	4	.	2	0	0
c04	t	4	0	0	0	0	0	.	0	0	0
c04p01	t	4	1	0	0	0	0	.	0	0	0
c04p02	t	4	2	0	0	0	0	.	0	0	0
c04p03	t	4	3	0	0	0	0	.	0	0	0
c04p02q01	q	4	2	1	1	237	4	2431	4	538	542
c04p03q01	q	4	3	2	1	238	2	21	2	964	971
c04p04	t	4	4	0	0	0	0	.	0	0	0
c04p05	t	4	5	0	0	0	0	.	0	0	0
c04p05q01	q	4	5	3	1	239	4	2413	3	1598	1605
c04p05q02	q	4	5	4	2	240	4	1432	1	1793	1798
c04p06	t	4	6	0	0	0	0	.	0	0	0
c04q01b013	qe	4	0	1	0	0	4	.	1	0	0
c04q02b014	qe	4	0	2	0	0	4	.	3	0	0
c04q03b015	qe	4	0	3	0	0	4	.	2	0	0
c04q04b016	qe	4	0	4	0	0	4	.	3	0	0
c05	t	5	0	0	0	0	0	.	0	0	0
c05p01	t	5	1	0	0	0	0	.	0	0	0
c05p02	t	5	2	0	0	0	0	.	0	0	0
c05p03	t	5	3	0	0	0	0	.	0	0	0
c05p01q01	q	5	1	1	1	241	4	2143	2	126	131
c05p02q01	q	5	2	2	1	242	4	3421	4	377	379
c05p02q02	q	5	2	3	2	243	4	2134	2	489	497
c05q01b017	qe	5	0	1	0	0	4	.	2	0	0
c05q02b018	qe	5	0	2	0	0	4	.	3	0	0
c05q03b019	qe	5	0	3	0	0	4	.	3	0	0
c06	t	6	0	0	0	0	0	.	0	0	0
c06p01	t	6	1	0	0	0	0	.	0	0	0
c06p01q01	q	6	1	1	1	245	4	3124	2	182	183
c06p01q02	q	6	1	2	2	244	4	1432	1	255	260
c06p01q03	q	6	1	3	3	246	2	21	2	303	307
c06p02	t	6	2	0	0	0	0	.	0	0	0
c06p03	t	6	3	0	0	0	0	.	0	0	0
c06p02q01	q	6	2	4	1	247	4	4321	4	569	572
c06p02q02	q	6	2	5	2	248	4	3214	3	736	747
c06p02q03	q	6	2	6	3	249	4	4231	4	775	784
c06p03q01	q	6	3	7	1	250	4	3214	3	903	919
c06p03q02	q	6	3	8	2	251	4	2143	2	1117	1120
c06p03q03	q	6	3	9	3	252	4	4231	4	1161	1168
c06p04	t	6	4	0	0	0	0	.	0	0	0
c06q01b020	qe	6	0	1	0	0	4	.	3	0	0
c06q02b021	qe	6	0	2	0	0	4	.	1	0	0
c06q03b022	qe	6	0	3	0	0	4	.	1	0	0
c06q04b023	qe	6	0	4	0	0	4	.	3	0	0
c07	t	7	0	0	0	0	0	.	0	0	0
c07p01	t	7	1	0	0	0	0	.	0	0	0
c07p02	t	7	2	0	0	0	0	.	0	0	0
c07p01q01	q	7	1	1	1	253	4	2314	3	1	10
c07p01q02	q	7	1	2	2	254	4	3421	4	142	146
c07p01q03	q	7	1	3	3	255	4	4321	4	267	280
c07p02q01	q	7	2	4	1	256	4	3421	4	573	583
c07p02q02	q	7	2	5	2	257	4	2431	4	712	721
c07p03	t	7	3	0	0	0	0	.	0	0	0
c07p04	t	7	4	0	0	0	0	.	0	0	0
c07p03q01	q	7	3	6	1	258	4	2134	2	963	981
c07q01b024	qe	7	0	1	0	0	4	.	2	0	0
c07q02b025	qe	7	0	2	0	0	4	.	1	0	0
c07q03b026	qe	7	0	3	0	0	4	.	3	0	0
c08	t	8	0	0	0	0	0	.	0	0	0
c08p01	t	8	1	0	0	0	0	.	0	0	0
c08p01q01	q	8	1	1	1	259	2	21	2	1	5
c08p01q02	q	8	1	2	2	260	4	2134	2	26	41
c08p01q03	q	8	1	3	3	261	4	1342	1	124	135
c08p01q04	q	8	1	4	4	262	4	1243	1	267	280
c08p01q05	q	8	1	5	5	263	4	1342	1	348	373
c08p02	t	8	2	0	0	0	0	.	0	0	0
c08p03	t	8	3	0	0	0	0	.	0	0	0
c08p04	t	8	4	0	0	0	0	.	0	0	0
c08p03q01	q	8	3	6	1	264	4	4132	2	844	863
c08p03q02	q	8	3	7	2	265	4	4321	4	962	983
c08q01b027	qe	8	0	1	0	0	4	.	3	0	0
c08q02b028	qe	8	0	2	0	0	4	.	2	0	0
c08q03b029	qe	8	0	3	0	0	4	.	3	0	0
c09	t	9	0	0	0	0	0	.	0	0	0
c09p01	t	9	1	0	0	0	0	.	0	0	0
c09p02	t	9	2	0	0	0	0	.	0	0	0
c09p03	t	9	3	0	0	0	0	.	0	0	0
c09p01q01	q	9	1	1	1	266	4	1342	1	61	73
c09p01q02	q	9	1	2	2	267	4	2431	4	351	361
c09p02q01	q	9	2	3	1	268	2	12	1	581	596
c09p02q02	q	9	2	4	2	269	4	3412	3	616	620
c09p02q03	q	9	2	5	3	270	4	4132	2	682	697
c09p03q01	q	9	3	6	1	271	4	1342	1	906	911
c09p04	t	9	4	0	0	0	0	.	0	0	0
c09p05	t	9	5	0	0	0	0	.	0	0	0
c09p06	t	9	6	0	0	0	0	.	0	0	0
c09p04q01	q	9	4	7	1	272	4	2143	2	1265	1277
c09p05q01	q	9	5	8	1	273	4	4231	4	1336	1345
c09p05q02	q	9	5	9	2	274	4	4312	3	1466	1476
c09p05q03	q	9	5	10	3	275	4	2413	3	1620	1623
c09p05q04	q	9	5	11	4	276	4	1234	1	1631	1637
c09q01b030	qe	9	0	1	0	0	4	.	4	0	0
c09q02b031	qe	9	0	2	0	0	4	.	3	0	0
c09q03b032	qe	9	0	3	0	0	4	.	3	0	0
c09q04b033	qe	9	0	4	0	0	4	.	3	0	0
c10	t	10	0	0	0	0	0	.	0	0	0
c10p01	t	10	1	0	0	0	0	.	0	0	0
c10p02	t	10	2	0	0	0	0	.	0	0	0
c10p03	t	10	3	0	0	0	0	.	0	0	0
c10p01q01	q	10	1	1	1	277	4	3214	3	157	161
c10p01q02	q	10	1	2	2	278	4	4321	4	182	189
c10p01q03	q	10	1	3	3	279	4	2431	4	325	336
c10p03q01	q	10	3	4	1	280	4	1342	1	751	756
c10p03q02	q	10	3	5	2	281	3	312	2	891	895
c10p04	t	10	4	0	0	0	0	.	0	0	0
c10p05	t	10	5	0	0	0	0	.	0	0	0
c10p06	t	10	6	0	0	0	0	.	0	0	0
c10p07	t	10	7	0	0	0	0	.	0	0	0
c10p04q01	q	10	4	6	1	282	4	3214	3	1353	1372
c10p05q01	q	10	5	7	1	283	3	132	1	1640	1651
c10q01b034	qe	10	0	1	0	0	4	.	4	0	0
c10q02b035	qe	10	0	2	0	0	4	.	3	0	0
c11	t	11	0	0	0	0	0	.	0	0	0
c11p01	t	11	1	0	0	0	0	.	0	0	0
c11p01q01	q	11	1	1	1	284	4	3241	4	86	102
c11p01q02	q	11	1	2	2	285	4	4132	2	167	198
c11p01q03	q	11	1	3	3	286	4	4123	2	272	283
c11p01q04	q	11	1	4	4	287	4	4312	3	349	358
c11p02	t	11	2	0	0	0	0	.	0	0	0
c11p03	t	11	3	0	0	0	0	.	0	0	0
c11p04	t	11	4	0	0	0	0	.	0	0	0
c11p02q01	q	11	2	5	1	288	3	312	2	461	482
c11p02q02	q	11	2	6	2	289	4	3412	3	552	564
c11p03q01	q	11	3	7	1	290	4	2431	4	772	806
c11p04q01	q	11	4	8	1	291	4	1432	1	1286	1305
c11q01b036	qe	11	0	1	0	0	4	.	2	0	0
c11q02b037	qe	11	0	2	0	0	4	.	3	0	0
c12	t	12	0	0	0	0	0	.	0	0	0
c12p01	t	12	1	0	0	0	0	.	0	0	0
c12p02	t	12	2	0	0	0	0	.	0	0	0
c12p01q01	q	12	1	1	1	292	4	2431	4	45	58
c12p01q02	q	12	1	2	2	293	4	2143	2	61	69
c12p01q03	q	12	1	3	3	294	2	12	1	221	240
c12p02q01	q	12	2	4	1	295	4	2431	4	377	394
c12p02q02	q	12	2	5	2	296	4	1423	1	599	621
c12p02q03	q	12	2	6	3	297	4	2314	3	641	647
c12p03	t	12	3	0	0	0	0	.	0	0	0
c12p04	t	12	4	0	0	0	0	.	0	0	0
c12p05	t	12	5	0	0	0	0	.	0	0	0
c12p06	t	12	6	0	0	0	0	.	0	0	0
c12p03q01	q	12	3	7	1	298	4	3421	4	848	872
c12p05q01	q	12	5	8	1	299	4	1324	1	1497	1514
c12p05q02	q	12	5	9	2	300	4	4321	4	1546	1580
c12p06q01	q	12	6	10	1	301	4	4123	2	1656	1671
c12q01b038	qe	12	0	1	0	0	4	.	4	0	0
c12q02b039	qe	12	0	2	0	0	4	.	3	0	0
c12q03b040	qe	12	0	3	0	0	4	.	4	0	0
c12q04b041	qe	12	0	4	0	0	4	.	3	0	0
c13	t	13	0	0	0	0	0	.	0	0	0
c13p01	t	13	1	0	0	0	0	.	0	0	0
c13p02	t	13	2	0	0	0	0	.	0	0	0
c13p03	t	13	3	0	0	0	0	.	0	0	0
c13p01q01	q	13	1	1	1	302	4	3124	2	179	184
c13p01q02	q	13	1	2	2	303	4	1342	1	185	200
c13p03q01	q	13	3	3	1	304	4	3421	4	450	477
c13p03q02	q	13	3	4	2	305	4	3214	3	596	607
c13p04	t	13	4	0	0	0	0	.	0	0	0
c13p05	t	13	5	0	0	0	0	.	0	0	0
c13p06	t	13	6	0	0	0	0	.	0	0	0
c13p04q01	q	13	4	5	1	307	4	2341	4	651	660
c13p04q02	q	13	4	6	2	306	4	4213	3	671	686
c13p04q03	q	13	4	7	3	308	4	1423	1	788	803
c13p05q01	q	13	5	8	1	309	4	4132	2	945	952
c13p06q01	q	13	6	9	1	313	4	4213	3	1102	1106
c13p06q02	q	13	6	10	2	310	4	4213	3	1170	1194
c13p07	t	13	7	0	0	0	0	.	0	0	0
c13p08	t	13	8	0	0	0	0	.	0	0	0
c13p09	t	13	9	0	0	0	0	.	0	0	0
c13p07q01	q	13	7	11	1	311	4	1342	1	1326	1336
c13p09q01	q	13	9	12	1	312	4	3142	2	1959	1966
c13q01b042	qe	13	0	1	0	0	4	.	3	0	0
c13q02b043	qe	13	0	2	0	0	4	.	4	0	0
c13q03b044	qe	13	0	3	0	0	4	.	3	0	0
c14	t	14	0	0	0	0	0	.	0	0	0
c14p01	t	14	1	0	0	0	0	.	0	0	0
c14p02	t	14	2	0	0	0	0	.	0	0	0
c14p01q01	q	14	1	1	1	315	4	4213	3	405	415
c14p02q01	q	14	2	2	1	314	4	4123	2	499	514
c14p02q02	q	14	2	3	2	316	4	1234	1	645	668
c14p03	t	14	3	0	0	0	0	.	0	0	0
c14p04	t	14	4	0	0	0	0	.	0	0	0
c14p05	t	14	5	0	0	0	0	.	0	0	0
c14p05q01	q	14	5	4	1	318	4	1324	1	1472	1493
c14p05q02	q	14	5	5	2	317	4	1423	1	1494	1502
c14q01b045	qe	14	0	1	0	0	4	.	2	0	0
c14q02b046	qe	14	0	2	0	0	4	.	2	0	0
c15	t	15	0	0	0	0	0	.	0	0	0
c15p01	t	15	1	0	0	0	0	.	0	0	0
c15p01q01	q	15	1	1	1	319	4	2413	3	12	34
c15p01q02	q	15	1	2	2	320	4	1243	1	119	143
c15p01q03	q	15	1	3	3	321	4	1234	1	281	287
c15p02	t	15	2	0	0	0	0	.	0	0	0
c15p03	t	15	3	0	0	0	0	.	0	0	0
c15p04	t	15	4	0	0	0	0	.	0	0	0
c15p03q01	q	15	3	4	1	322	4	2134	2	586	597
c15p03q02	q	15	3	5	2	323	4	1342	1	808	815
c15p04q01	q	15	4	6	1	324	4	4123	2	1048	1079
c15p05	t	15	5	0	0	0	0	.	0	0	0
c15p06	t	15	6	0	0	0	0	.	0	0	0
c15p07	t	15	7	0	0	0	0	.	0	0	0
c15p08	t	15	8	0	0	0	0	.	0	0	0
c15p05q01	q	15	5	7	1	325	4	4321	4	1442	1457
c15p06q01	q	15	6	8	1	326	4	2134	2	1749	1783
c15p08q01	q	15	8	9	1	328	4	2413	3	2349	2356
c15p08q02	q	15	8	10	2	327	4	2413	3	2427	2438
c15p09	t	15	9	0	0	0	0	.	0	0	0
c15q01b047	qe	15	0	1	0	0	4	.	3	0	0
c15q02b048	qe	15	0	2	0	0	4	.	4	0	0
c15q03b049	qe	15	0	3	0	0	4	.	1	0	0
c15q04b050	qe	15	0	4	0	0	4	.	2	0	0
c16	t	16	0	0	0	0	0	.	0	0	0
c16p01	t	16	1	0	0	0	0	.	0	0	0
c16p01q01	q	16	1	1	1	330	4	2143	2	74	79
c16p01q02	q	16	1	2	2	329	4	2341	4	126	141
c16p01q03	q	16	1	3	3	331	4	2134	2	235	245
c16p01q04	q	16	1	4	4	332	4	3412	3	278	289
c16p01q05	q	16	1	5	5	333	4	3214	3	335	345
c16p02	t	16	2	0	0	0	0	.	0	0	0
c16p03	t	16	3	0	0	0	0	.	0	0	0
c16p04	t	16	4	0	0	0	0	.	0	0	0
c16p03q01	q	16	3	6	1	334	4	3124	2	742	758
c16p03q02	q	16	3	7	2	335	4	3214	3	820	847
c16p04q01	q	16	4	8	1	336	4	3241	4	1175	1190
c16p04q02	q	16	4	9	2	337	4	4123	2	1218	1229
c16p05	t	16	5	0	0	0	0	.	0	0	0
c16p06	t	16	6	0	0	0	0	.	0	0	0
c16p07	t	16	7	0	0	0	0	.	0	0	0
c16p05q01	q	16	5	10	1	338	4	2413	3	1486	1513
c16p05q02	q	16	5	11	2	339	4	1423	1	1522	1530
c16p06q01	q	16	6	12	1	342	4	2143	2	1791	1808
c16p07q01	q	16	7	13	1	341	2	12	1	1825	1841
c16p07q02	q	16	7	14	2	340	4	4321	4	1936	1942
c16q01b051	qe	16	0	1	0	0	4	.	4	0	0
c16q02b052	qe	16	0	2	0	0	4	.	3	0	0
c16q03b053	qe	16	0	3	0	0	4	.	2	0	0
c16q04b054	qe	16	0	4	0	0	4	.	3	0	0
c16q05b055	qe	16	0	5	0	0	4	.	2	0	0
c17	t	17	0	0	0	0	0	.	0	0	0
c17p01	t	17	1	0	0	0	0	.	0	0	0
c17p02	t	17	2	0	0	0	0	.	0	0	0
c17p03	t	17	3	0	0	0	0	.	0	0	0
c17p04	t	17	4	0	0	0	0	.	0	0	0
c17p01q01	q	17	1	1	1	343	2	21	2	129	152
c17p02q01	q	17	2	2	1	344	4	4213	3	480	497
c17p03q01	q	17	3	3	1	345	4	4132	2	571	585
c17p04q01	q	17	4	4	1	346	2	21	2	862	894
c17p05	t	17	5	0	0	0	0	.	0	0	0
c17p06	t	17	6	0	0	0	0	.	0	0	0
c17p07	t	17	7	0	0	0	0	.	0	0	0
c17p05q01	q	17	5	5	1	347	4	4132	2	1056	1070
c17p06q01	q	17	6	6	1	348	4	1432	1	1518	1539
c17p07q01	q	17	7	7	1	349	4	4132	2	1618	1642
c17q01b056	qe	17	0	1	0	0	4	.	2	0	0
c17q02b057	qe	17	0	2	0	0	4	.	3	0	0
c17q03b058	qe	17	0	3	0	0	4	.	3	0	0
c17q04b059	qe	17	0	4	0	0	4	.	3	0	0
c18	t	18	0	0	0	0	0	.	0	0	0
c18p01	t	18	1	0	0	0	0	.	0	0	0
c18p01q01	q	18	1	1	1	350	4	1243	1	30	36
c18p01q02	q	18	1	2	2	351	4	4213	3	152	177
c18p02	t	18	2	0	0	0	0	.	0	0	0
c18p03	t	18	3	0	0	0	0	.	0	0	0
c18p04	t	18	4	0	0	0	0	.	0	0	0
c18p05	t	18	5	0	0	0	0	.	0	0	0
c18p02q01	q	18	2	3	1	352	3	312	2	696	706
c18p03q01	q	18	3	4	1	353	4	3124	2	798	812
c18p04q01	q	18	4	5	1	354	4	1243	1	1056	1070
c18p05q01	q	18	5	6	1	356	4	2314	3	1418	1425
c18q01b060	qe	18	0	1	0	0	4	.	4	0	0
c18q02b061	qe	18	0	2	0	0	4	.	3	0	0
c19	t	19	0	0	0	0	0	.	0	0	0
c19p01	t	19	1	0	0	0	0	.	0	0	0
c19p02	t	19	2	0	0	0	0	.	0	0	0
c19p01q01	q	19	1	1	1	357	4	2341	4	1	7
c19p01q02	q	19	1	2	2	358	4	2413	3	157	165
c19p02q01	q	19	2	3	1	359	4	4231	4	471	499
c19p02q02	q	19	2	4	2	362	4	2341	4	645	653
c19p02q03	q	19	2	5	3	361	4	1432	1	730	753
c19p02q04	q	19	2	6	4	360	4	2413	3	827	839
c19p03	t	19	3	0	0	0	0	.	0	0	0
c19p04	t	19	4	0	0	0	0	.	0	0	0
c19p05	t	19	5	0	0	0	0	.	0	0	0
c19p06	t	19	6	0	0	0	0	.	0	0	0
c19p03q01	q	19	3	7	1	363	4	4321	4	1154	1168
c19p05q01	q	19	5	8	1	364	4	4213	3	1698	1719
c19p06q01	q	19	6	9	1	365	4	2143	2	1926	1934
c19p06q02	q	19	6	10	2	366	4	1243	1	1942	1946
c19p06q03	q	19	6	11	3	367	4	4231	4	2065	2081
c19p07	t	19	7	0	0	0	0	.	0	0	0
c19p08	t	19	8	0	0	0	0	.	0	0	0
c19p09	t	19	9	0	0	0	0	.	0	0	0
c19p07q01	q	19	7	12	1	368	4	4123	2	2377	2383
c19q01b062	qe	19	0	1	0	0	4	.	2	0	0
c19q02b063	qe	19	0	2	0	0	4	.	4	0	0
c19q03b064	qe	19	0	3	0	0	4	.	1	0	0
c19q04b065	qe	19	0	4	0	0	4	.	4	0	0
c20	t	20	0	0	0	0	0	.	0	0	0
c20p01	t	20	1	0	0	0	0	.	0	0	0
c20p01q01	q	20	1	1	1	369	4	3142	2	1	24
c20p01q02	q	20	1	2	2	370	4	2431	4	85	90
c20p02	t	20	2	0	0	0	0	.	0	0	0
c20p03	t	20	3	0	0	0	0	.	0	0	0
c20p04	t	20	4	0	0	0	0	.	0	0	0
c20p05	t	20	5	0	0	0	0	.	0	0	0
c20p02q01	q	20	2	3	1	371	4	1234	1	342	357
c20p03q01	q	20	3	4	1	372	4	1342	1	560	588
c20p04q01	q	20	4	5	1	373	4	4231	4	977	987
c20p05q01	q	20	5	6	1	374	4	3421	4	1182	1193
c20p06	t	20	6	0	0	0	0	.	0	0	0
c20p07	t	20	7	0	0	0	0	.	0	0	0
c20p07	t	20	7	0	0	0	0	.	0	0	0
c20p08	t	20	8	0	0	0	0	.	0	0	0
c20p09	t	20	9	0	0	0	0	.	0	0	0
c20p07q01	q	20	7	7	1	375	4	1423	1	1907	1930
c20q01b066	qe	20	0	1	0	0	4	.	2	0	0
c20q02b067	qe	20	0	2	0	0	4	.	2	0	0
c20q03b068	qe	20	0	3	0	0	4	.	2	0	0
c20q04b069	qe	20	0	4	0	0	4	.	2	0	0
c20q05b070	qe	20	0	5	0	0	4	.	2	0	0
c20q06b071	qe	20	0	6	0	0	4	.	1	0	0
c20q07b072	qe	20	0	7	0	0	4	.	3	0	0
c20q08b073	qe	20	0	8	0	0	4	.	2	0	0
c21	t	21	0	0	0	0	0	.	0	0	0
c21p01	t	21	1	0	0	0	0	.	0	0	0
c21p01q01	q	21	1	1	1	468	4	3412	3	95	107
c21p01q02	q	21	1	2	2	469	4	1432	1	326	330
c21p02	t	21	2	0	0	0	0	.	0	0	0
c21p03	t	21	3	0	0	0	0	.	0	0	0
c21p04	t	21	4	0	0	0	0	.	0	0	0
c21p05	t	21	5	0	0	0	0	.	0	0	0
c21p06	t	21	6	0	0	0	0	.	0	0	0
c21p07	t	21	7	0	0	0	0	.	0	0	0
c21p08	t	21	8	0	0	0	0	.	0	0	0
c21p09	t	21	9	0	0	0	0	.	0	0	0
c21p04q01	q	21	4	3	1	470	4	1342	1	1155	1166
c21p08q01	q	21	8	4	1	471	4	4123	2	2601	2610
c21q01b074	qe	21	0	1	0	0	4	.	2	0	0
c21q02b075	qe	21	0	2	0	0	4	.	4	0	0
c21q03b076	qe	21	0	3	0	0	4	.	1	0	0
c21q04b077	qe	21	0	4	0	0	4	.	2	0	0
c21q05b078	qe	21	0	5	0	0	4	.	3	0	0
c22	t	22	0	0	0	0	0	.	0	0	0
c22p01	t	22	1	0	0	0	0	.	0	0	0
c22p02	t	22	2	0	0	0	0	.	0	0	0
c22p03	t	22	3	0	0	0	0	.	0	0	0
c22p04	t	22	4	0	0	0	0	.	0	0	0
c22p01q01	q	22	1	1	1	472	4	4132	2	307	316
c22p04q01	q	22	4	2	1	473	4	4123	2	1076	1082
c22p05	t	22	5	0	0	0	0	.	0	0	0
c22p06	t	22	6	0	0	0	0	.	0	0	0
c22p07	t	22	7	0	0	0	0	.	0	0	0
c22p08	t	22	8	0	0	0	0	.	0	0	0
c22p09	t	22	9	0	0	0	0	.	0	0	0
c22p07q01	q	22	7	3	1	474	4	1234	1	2116	2122
c22p09q01	q	22	9	4	1	475	4	2134	2	2727	2744
c22q01b079	qe	22	0	1	0	0	4	.	2	0	0
c22q02b080	qe	22	0	2	0	0	4	.	1	0	0
c22q03b081	qe	22	0	3	0	0	4	.	4	0	0
c22q04b082	qe	22	0	4	0	0	4	.	2	0	0
c23	t	23	0	0	0	0	0	.	0	0	0
c23p01	t	23	1	0	0	0	0	.	0	0	0
c23p02	t	23	2	0	0	0	0	.	0	0	0
c23p03	t	23	3	0	0	0	0	.	0	0	0
c23p04	t	23	4	0	0	0	0	.	0	0	0
c23p05	t	23	5	0	0	0	0	.	0	0	0
c23p06	t	23	6	0	0	0	0	.	0	0	0
c23p07	t	23	7	0	0	0	0	.	0	0	0
c23p01q01	q	23	1	1	1	476	4	1342	1	428	439
c23p02q01	q	23	2	2	1	487	4	2143	2	615	622
c23p04q01	q	23	4	3	1	488	4	1423	1	1481	1490
c23p06q01	q	23	6	4	1	489	4	2413	3	1952	1961
c23q01b083	qe	23	0	1	0	0	4	.	1	0	0
c23q02b084	qe	23	0	2	0	0	4	.	4	0	0
c23q03b085	qe	23	0	3	0	0	4	.	2	0	0
c23q04b086	qe	23	0	4	0	0	4	.	4	0	0
c24	t	24	0	0	0	0	0	.	0	0	0
c24p01	t	24	1	0	0	0	0	.	0	0	0
c24p02	t	24	2	0	0	0	0	.	0	0	0
c24p03	t	24	3	0	0	0	0	.	0	0	0
c24p04	t	24	4	0	0	0	0	.	0	0	0
c24p02q01	q	24	2	1	1	490	4	2413	3	327	335
c24p04q01	q	24	4	2	1	491	4	2314	3	1118	1138
c24p05	t	24	5	0	0	0	0	.	0	0	0
c24p06	t	24	6	0	0	0	0	.	0	0	0
c24p07	t	24	7	0	0	0	0	.	0	0	0
c24p06q01	q	24	6	3	1	492	4	1423	1	1742	1752
c24p07q01	q	24	7	4	1	493	4	1432	1	2078	2089
c24q01b087	qe	24	0	1	0	0	4	.	1	0	0
c24q02b088	qe	24	0	2	0	0	4	.	3	0	0
c24q03b089	qe	24	0	3	0	0	4	.	2	0	0
c24q04b090	qe	24	0	4	0	0	4	.	3	0	0
c25	t	25	0	0	0	0	0	.	0	0	0
c25p01	t	25	1	0	0	0	0	.	0	0	0
c25p02	t	25	2	0	0	0	0	.	0	0	0
c25p01q01	q	25	1	1	1	494	4	2143	2	53	68
c25p02q01	q	25	2	2	1	495	4	3142	2	527	540
c25p03	t	25	3	0	0	0	0	.	0	0	0
c25p04	t	25	4	0	0	0	0	.	0	0	0
c25p05	t	25	5	0	0	0	0	.	0	0	0
c25p06	t	25	6	0	0	0	0	.	0	0	0
c25p03q01	q	25	3	3	1	496	4	3412	3	1018	1028
c25p04q01	q	25	4	4	1	497	4	2143	2	1262	1272
c25p06q01	q	25	6	5	1	498	4	2341	4	1901	1910
c25q01b091	qe	25	0	1	0	0	4	.	2	0	0
c25q02b092	qe	25	0	2	0	0	4	.	3	0	0
c25q03b093	qe	25	0	3	0	0	4	.	1	0	0
c25q04b094	qe	25	0	4	0	0	4	.	1	0	0
c26	t	26	0	0	0	0	0	.	0	0	0
c26p01	t	26	1	0	0	0	0	.	0	0	0
c26p02	t	26	2	0	0	0	0	.	0	0	0
c26p03	t	26	3	0	0	0	0	.	0	0	0
c26p04	t	26	4	0	0	0	0	.	0	0	0
c26p02q01	q	26	2	1	1	499	4	3412	3	475	483
c26p02q02	q	26	2	2	2	507	4	2431	4	567	581
c26p03q01	q	26	3	3	1	508	4	4213	3	923	943
c26p04q01	q	26	4	4	1	509	4	4213	3	1206	1217
c26p05	t	26	5	0	0	0	0	.	0	0	0
c26p06	t	26	6	0	0	0	0	.	0	0	0
c26p05q01	q	26	5	5	1	510	4	2431	4	1461	1475
c26p05q02	q	26	5	6	2	511	4	3142	2	1685	1691
c26p06q01	q	26	6	7	1	512	4	2143	2	1907	1919
c26p07	t	26	7	0	0	0	0	.	0	0	0
c26p08	t	26	8	0	0	0	0	.	0	0	0
c26q01b095	qe	26	0	1	0	0	4	.	2	0	0
c26q02b096	qe	26	0	2	0	0	4	.	3	0	0
c27	t	27	0	0	0	0	0	.	0	0	0
c27p01	t	27	1	0	0	0	0	.	0	0	0
c27p02	t	27	2	0	0	0	0	.	0	0	0
c27p02q01	q	27	2	1	1	513	4	4231	4	611	626
c27p03	t	27	3	0	0	0	0	.	0	0	0
c27p04	t	27	4	0	0	0	0	.	0	0	0
c27p05	t	27	5	0	0	0	0	.	0	0	0
c27p06	t	27	6	0	0	0	0	.	0	0	0
c27p07	t	27	7	0	0	0	0	.	0	0	0
c27p08	t	27	8	0	0	0	0	.	0	0	0
c27p05q01	q	27	5	2	1	514	4	2314	3	1189	1207
c27p05q02	q	27	5	3	2	515	4	2143	2	1438	1446
c27p07q01	q	27	7	4	1	516	4	3142	2	1898	1907
c27q01b097	qe	27	0	1	0	0	4	.	3	0	0
c27q02b098	qe	27	0	2	0	0	4	.	1	0	0
c27q03b099	qe	27	0	3	0	0	4	.	2	0	0
c27q04b100	qe	27	0	4	0	0	4	.	2	0	0
c28	t	28	0	0	0	0	0	.	0	0	0
c28p01	t	28	1	0	0	0	0	.	0	0	0
c28p02	t	28	2	0	0	0	0	.	0	0	0
c28p03	t	28	3	0	0	0	0	.	0	0	0
c28p01q01	q	28	1	1	1	517	4	2341	4	192	205
c28p02q01	q	28	2	2	1	518	4	2134	2	515	524
c28p03q01	q	28	3	3	1	519	4	4321	4	1014	1029
c28p04	t	28	4	0	0	0	0	.	0	0	0
c28p05	t	28	5	0	0	0	0	.	0	0	0
c28q01b101	qe	28	0	1	0	0	4	.	3	0	0
c28q02b102	qe	28	0	2	0	0	4	.	4	0	0
c28q03b103	qe	28	0	3	0	0	4	.	3	0	0
c29	t	29	0	0	0	0	0	.	0	0	0
c29p01	t	29	1	0	0	0	0	.	0	0	0
c29p02	t	29	2	0	0	0	0	.	0	0	0
c29p03	t	29	3	0	0	0	0	.	0	0	0
c29p04	t	29	4	0	0	0	0	.	0	0	0
c29p01q01	q	29	1	1	1	533	4	2431	4	24	34
c29p02q01	q	29	2	2	1	534	4	3241	4	339	347
c29p03q01	q	29	3	3	1	535	4	2143	2	805	813
c29p04q01	q	29	4	4	1	536	4	3124	2	1265	1273
c29q01b104	qe	29	0	1	0	0	4	.	3	0	0
c29q02b105	qe	29	0	2	0	0	4	.	1	0	0
c29q03b106	qe	29	0	3	0	0	4	.	3	0	0
c30	t	30	0	0	0	0	0	.	0	0	0
c30p01	t	30	1	0	0	0	0	.	0	0	0
c30p02	t	30	2	0	0	0	0	.	0	0	0
c30p02q01	q	30	2	1	1	537	4	2134	2	501	514
c30p03	t	30	3	0	0	0	0	.	0	0	0
c30p04	t	30	4	0	0	0	0	.	0	0	0
c30p05	t	30	5	0	0	0	0	.	0	0	0
c30p06	t	30	6	0	0	0	0	.	0	0	0
c30p07	t	30	7	0	0	0	0	.	0	0	0
c30p08	t	30	8	0	0	0	0	.	0	0	0
c30p09	t	30	9	0	0	0	0	.	0	0	0
c30p08q01	q	30	8	2	1	538	4	3214	3	2157	2164
c30p09q01	q	30	9	3	1	539	4	2431	4	2530	2569
c30q01b107	qe	30	0	1	0	0	4	.	3	0	0
c30q02b108	qe	30	0	2	0	0	4	.	2	0	0
c31	t	31	0	0	0	0	0	.	0	0	0
c31p01	t	31	1	0	0	0	0	.	0	0	0
c31p02	t	31	2	0	0	0	0	.	0	0	0
c31p03	t	31	3	0	0	0	0	.	0	0	0
c31p04	t	31	4	0	0	0	0	.	0	0	0
c31p01q01	q	31	1	1	1	540	4	3214	3	189	215
c31p03q01	q	31	3	2	1	541	4	2314	3	858	869
c31p04q01	q	31	4	3	1	542	4	1324	1	1076	1082
c31p05	t	31	5	0	0	0	0	.	0	0	0
c31p06	t	31	6	0	0	0	0	.	0	0	0
c31p07	t	31	7	0	0	0	0	.	0	0	0
c31p08	t	31	8	0	0	0	0	.	0	0	0
c31p06q01	q	31	6	4	1	543	4	1432	1	1936	1946
c31p06q02	q	31	6	5	2	544	4	1432	1	2236	2251
c31p07q01	q	31	7	6	1	545	4	4123	2	2666	2678
c31p08q01	q	31	8	7	1	546	4	3412	3	2720	2738
c31p08q02	q	31	8	8	2	547	4	4312	3	2980	2997
c31p09	t	31	9	0	0	0	0	.	0	0	0
c31p10	t	31	10	0	0	0	0	.	0	0	0
c31p11	t	31	11	0	0	0	0	.	0	0	0
c31p10q01	q	31	10	9	1	548	4	3142	2	3636	3646
c31q01b109	qe	31	0	1	0	0	4	.	3	0	0
c31q02b110	qe	31	0	2	0	0	4	.	1	0	0
c31q03b111	qe	31	0	3	0	0	4	.	2	0	0
c32	t	32	0	0	0	0	0	.	0	0	0
c32p01	t	32	1	0	0	0	0	.	0	0	0
c32p02	t	32	2	0	0	0	0	.	0	0	0
c32p03	t	32	3	0	0	0	0	.	0	0	0
c32p04	t	32	4	0	0	0	0	.	0	0	0
c32p05	t	32	5	0	0	0	0	.	0	0	0
c32p02q01	q	32	2	1	1	549	4	1432	1	458	478
c32p03q01	q	32	3	2	1	562	4	4123	2	1017	1033
c32p05q01	q	32	5	3	1	563	4	3124	2	1590	1609
c32p05q02	q	32	5	4	2	564	4	1234	1	1673	1697
c32p06	t	32	6	0	0	0	0	.	0	0	0
c32p07	t	32	7	0	0	0	0	.	0	0	0
c32p08	t	32	8	0	0	0	0	.	0	0	0
c32q01b112	qe	32	0	1	0	0	4	.	2	0	0
c32q02b113	qe	32	0	2	0	0	4	.	3	0	0
c32q03b114	qe	32	0	3	0	0	4	.	2	0	0
c33	t	33	0	0	0	0	0	.	0	0	0
c33p01	t	33	1	0	0	0	0	.	0	0	0
c33p02	t	33	2	0	0	0	0	.	0	0	0
c33p03	t	33	3	0	0	0	0	.	0	0	0
c33p04	t	33	4	0	0	0	0	.	0	0	0
c33p01q01	q	33	1	1	1	565	4	2314	3	218	235
c33p02q01	q	33	2	2	1	566	4	4123	2	400	410
c33p03q01	q	33	3	3	1	567	4	1234	1	788	812
c33p04q01	q	33	4	4	1	568	4	2413	3	1099	1116
c33p04q02	q	33	4	5	2	569	4	2431	4	1164	1180
c33p05	t	33	5	0	0	0	0	.	0	0	0
c33p06	t	33	6	0	0	0	0	.	0	0	0
c33p07	t	33	7	0	0	0	0	.	0	0	0
c33p05q01	q	33	5	6	1	570	4	3421	4	1568	1585
c33p06q01	q	33	6	7	1	571	4	1432	1	1639	1673
c33p07q01	q	33	7	8	1	572	4	1342	1	1998	2008
c33p08	t	33	8	0	0	0	0	.	0	0	0
c33p09	t	33	9	0	0	0	0	.	0	0	0
c33p10	t	33	10	0	0	0	0	.	0	0	0
c33p09q01	q	33	9	9	1	573	4	2314	3	2859	2877
c33q01b115	qe	33	0	1	0	0	4	.	3	0	0
c33q02b116	qe	33	0	2	0	0	4	.	4	0	0
c33q03b117	qe	33	0	3	0	0	4	.	4	0	0
c33q04b118	qe	33	0	4	0	0	4	.	1	0	0
c34	t	34	0	0	0	0	0	.	0	0	0
c34p01	t	34	1	0	0	0	0	.	0	0	0
c34p02	t	34	2	0	0	0	0	.	0	0	0
c34p03	t	34	3	0	0	0	0	.	0	0	0
c34p04	t	34	4	0	0	0	0	.	0	0	0
c34p02q01	q	34	2	1	1	574	4	4213	3	339	373
c34p04q01	q	34	4	2	1	575	4	4132	2	1093	1114
c34p05	t	34	5	0	0	0	0	.	0	0	0
c34p06	t	34	6	0	0	0	0	.	0	0	0
c34p07	t	34	7	0	0	0	0	.	0	0	0
c34p08	t	34	8	0	0	0	0	.	0	0	0
c34p05q01	q	34	5	3	1	576	4	4132	2	1562	1595
c34p06q01	q	34	6	4	1	577	4	2341	4	1826	1851
c34p07q01	q	34	7	5	1	578	4	1324	1	2119	2146
c34p08q01	q	34	8	6	1	579	4	1243	1	2470	2482
c34p09	t	34	9	0	0	0	0	.	0	0	0
c34q01b119	qe	34	0	1	0	0	4	.	4	0	0
c34q02b120	qe	34	0	2	0	0	4	.	3	0	0
c34q03b121	qe	34	0	3	0	0	4	.	2	0	0
c35	t	35	0	0	0	0	0	.	0	0	0
c35p01	t	35	1	0	0	0	0	.	0	0	0
c35p02	t	35	2	0	0	0	0	.	0	0	0
c35p02q01	q	35	2	1	1	581	4	2431	4	386	401
c35p03	t	35	3	0	0	0	0	.	0	0	0
c35p04	t	35	4	0	0	0	0	.	0	0	0
c35p05	t	35	5	0	0	0	0	.	0	0	0
c35p06	t	35	6	0	0	0	0	.	0	0	0
c35p07	t	35	7	0	0	0	0	.	0	0	0
c35p08	t	35	8	0	0	0	0	.	0	0	0
c35p06q01	q	35	6	2	1	580	4	3124	2	1705	1748
c35q01b122	qe	35	0	1	0	0	4	.	2	0	0
c35q02b123	qe	35	0	2	0	0	4	.	2	0	0
c35q03b124	qe	35	0	3	0	0	4	.	4	0	0
c36	t	36	0	0	0	0	0	.	0	0	0
c36p01	t	36	1	0	0	0	0	.	0	0	0
c36p02	t	36	2	0	0	0	0	.	0	0	0
c36p03	t	36	3	0	0	0	0	.	0	0	0
c36p04	t	36	4	0	0	0	0	.	0	0	0
c36p01q01	q	36	1	1	1	582	4	3124	2	1	28
c36p01q02	q	36	1	2	2	583	4	3241	4	108	130
c36p03q01	q	36	3	3	1	584	4	1432	1	895	915
c36p04q01	q	36	4	4	1	585	4	4231	4	1492	1534
c36p05	t	36	5	0	0	0	0	.	0	0	0
c36p06	t	36	6	0	0	0	0	.	0	0	0
c36p07	t	36	7	0	0	0	0	.	0	0	0
c36p08	t	36	8	0	0	0	0	.	0	0	0
c36p09	t	36	9	0	0	0	0	.	0	0	0
c36p06q01	q	36	6	5	1	586	4	4213	3	2045	2069
c36p06q02	q	36	6	6	2	587	4	2341	4	2144	2189
c36p08q01	q	36	8	7	1	588	4	2314	3	2852	2879
c36q01b125	qe	36	0	1	0	0	4	.	1	0	0
c36q02b126	qe	36	0	2	0	0	4	.	2	0	0
c36q03b127	qe	36	0	3	0	0	4	.	2	0	0
c36q04b128	qe	36	0	4	0	0	4	.	1	0	0
c37	t	37	0	0	0	0	0	.	0	0	0
c37p01	t	37	1	0	0	0	0	.	0	0	0
c37p02	t	37	2	0	0	0	0	.	0	0	0
c37p01q01	q	37	1	1	1	589	4	2143	2	1	40
c37p01q02	q	37	1	2	2	590	4	2431	4	218	246
c37p02q01	q	37	2	3	1	591	4	1342	1	345	405
c37p03	t	37	3	0	0	0	0	.	0	0	0
c37p04	t	37	4	0	0	0	0	.	0	0	0
c37p05	t	37	5	0	0	0	0	.	0	0	0
c37p03q01	q	37	3	4	1	592	4	3241	4	1145	1173
c37p04q01	q	37	4	5	1	593	4	1324	1	1399	1431
c37p05q01	q	37	5	6	1	594	4	1423	1	1904	1941
c37p06	t	37	6	0	0	0	0	.	0	0	0
c37p07	t	37	7	0	0	0	0	.	0	0	0
c37p08	t	37	8	0	0	0	0	.	0	0	0
c37p09	t	37	9	0	0	0	0	.	0	0	0
c37p10	t	37	10	0	0	0	0	.	0	0	0
c37p11	t	37	11	0	0	0	0	.	0	0	0
c37p12	t	37	12	0	0	0	0	.	0	0	0
c37p10q01	q	37	10	7	1	595	4	3124	2	3595	3651
c37p11q01	q	37	11	8	1	596	4	3241	4	3829	3854
c37p12q01	q	37	12	9	1	597	4	3241	4	4155	4175
c37p13	t	37	13	0	0	0	0	.	0	0	0
c37p13q01	q	37	13	10	1	598	4	4321	4	4345	4367
c37q01b129	qe	37	0	1	0	0	4	.	2	0	0
c37q02b130	qe	37	0	2	0	0	4	.	4	0	0
c38	t	38	0	0	0	0	0	.	0	0	0
c38p01	t	38	1	0	0	0	0	.	0	0	0
c38p01q01	q	38	1	1	1	602	4	3124	2	344	366
c38p02	t	38	2	0	0	0	0	.	0	0	0
c38p03	t	38	3	0	0	0	0	.	0	0	0
c38p04	t	38	4	0	0	0	0	.	0	0	0
c38p02q01	q	38	2	2	1	600	4	2314	3	535	558
c38p03q01	q	38	3	3	1	601	4	3124	2	752	798
c38p04q01	q	38	4	4	1	603	4	1432	1	1189	1201
c38p05	t	38	5	0	0	0	0	.	0	0	0
c38p06	t	38	6	0	0	0	0	.	0	0	0
c38p07	t	38	7	0	0	0	0	.	0	0	0
c38p08	t	38	8	0	0	0	0	.	0	0	0
c38p09	t	38	9	0	0	0	0	.	0	0	0
c38p07q01	q	38	7	5	1	625	4	2314	3	2499	2544
c38p08q01	q	38	8	6	1	626	4	4321	4	2770	2816
c38q01b131	qe	38	0	1	0	0	4	.	2	0	0
c38q02b132	qe	38	0	2	0	0	4	.	4	0	0
c38q03b133	qe	38	0	3	0	0	4	.	3	0	0
c39	t	39	0	0	0	0	0	.	0	0	0
c39p01	t	39	1	0	0	0	0	.	0	0	0
c39p02	t	39	2	0	0	0	0	.	0	0	0
c39p01q01	q	39	1	1	1	627	4	3124	2	1	22
c39p01q02	q	39	1	2	2	628	4	4321	4	148	163
c39p02q01	q	39	2	3	1	629	4	1243	1	380	403
c39p02q02	q	39	2	4	2	630	4	3124	2	605	617
c39p02q03	q	39	2	5	3	631	4	1324	1	663	705
c39p03	t	39	3	0	0	0	0	.	0	0	0
c39p04	t	39	4	0	0	0	0	.	0	0	0
c39p05	t	39	5	0	0	0	0	.	0	0	0
c39p06	t	39	6	0	0	0	0	.	0	0	0
c39p04q01	q	39	4	6	1	632	4	3124	2	1275	1308
c39q01b134	qe	39	0	1	0	0	4	.	2	0	0
c39q02b135	qe	39	0	2	0	0	4	.	3	0	0
c40	t	40	0	0	0	0	0	.	0	0	0
c40p01	t	40	1	0	0	0	0	.	0	0	0
c40p02	t	40	2	0	0	0	0	.	0	0	0
c40p03	t	40	3	0	0	0	0	.	0	0	0
c40p04	t	40	4	0	0	0	0	.	0	0	0
c40p02q01	q	40	2	1	1	633	4	1324	1	270	325
c40p02q02	q	40	2	2	2	634	4	4231	4	456	483
c40p03q01	q	40	3	3	1	635	4	1234	1	675	696
c40p04q01	q	40	4	4	1	636	4	4321	4	1186	1230
c40p05	t	40	5	0	0	0	0	.	0	0	0
c40p06	t	40	6	0	0	0	0	.	0	0	0
c40p07	t	40	7	0	0	0	0	.	0	0	0
c40p08	t	40	8	0	0	0	0	.	0	0	0
c40p09	t	40	9	0	0	0	0	.	0	0	0
c40p08q01	q	40	8	5	1	637	4	1234	1	2227	2335
c40q01b136	qe	40	0	1	0	0	4	.	2	0	0
c40q02b137	qe	40	0	2	0	0	4	.	1	0	0
c40q03b138	qe	40	0	3	0	0	4	.	1	0	0
c41	t	41	0	0	0	0	0	.	0	0	0
c41p01	t	41	1	0	0	0	0	.	0	0	0
c41p02	t	41	2	0	0	0	0	.	0	0	0
c41p03	t	41	3	0	0	0	0	.	0	0	0
c41p04	t	41	4	0	0	0	0	.	0	0	0
c41p01q01	q	41	1	1	1	638	4	1324	1	217	240
c41p02q01	q	41	2	2	1	639	4	4321	4	550	562
c41p04q01	q	41	4	3	1	640	4	2314	3	1266	1284
c41p05	t	41	5	0	0	0	0	.	0	0	0
c41p06	t	41	6	0	0	0	0	.	0	0	0
c41p07	t	41	7	0	0	0	0	.	0	0	0
c41p08	t	41	8	0	0	0	0	.	0	0	0
c41q01b139	qe	41	0	1	0	0	4	.	2	0	0
c41q02b140	qe	41	0	2	0	0	4	.	3	0	0
c41q03b141	qe	41	0	3	0	0	4	.	3	0	0
c42	t	42	0	0	0	0	0	.	0	0	0
c42p01	t	42	1	0	0	0	0	.	0	0	0
c42p02	t	42	2	0	0	0	0	.	0	0	0
c42p03	t	42	3	0	0	0	0	.	0	0	0
c42p04	t	42	4	0	0	0	0	.	0	0	0
c42p05	t	42	5	0	0	0	0	.	0	0	0
c42p01q01	q	42	1	1	1	641	4	4132	2	1	39
c42p01q02	q	42	1	2	2	642	4	3142	2	212	230
c42p02q01	q	42	2	3	1	643	4	1423	1	475	524
c42p04q01	q	42	4	4	1	644	4	1234	1	1019	1049
c42p04q02	q	42	4	5	2	645	4	4312	3	1130	1148
c42q01b142	qe	42	0	1	0	0	4	.	4	0	0
c42q02b143	qe	42	0	2	0	0	4	.	3	0	0
c42q03b144	qe	42	0	3	0	0	4	.	3	0	0
c42q04b145	qe	42	0	4	0	0	4	.	4	0	0
c43	t	43	0	0	0	0	0	.	0	0	0
c43p01	t	43	1	0	0	0	0	.	0	0	0
c43p02	t	43	2	0	0	0	0	.	0	0	0
c43p03	t	43	3	0	0	0	0	.	0	0	0
c43p01q01	q	43	1	1	1	646	4	1243	1	159	173
c43p02q01	q	43	2	2	1	647	4	4123	2	590	637
c43p03q01	q	43	3	3	1	648	4	3241	4	812	837
c43p03q02	q	43	3	4	2	649	4	1432	1	1017	1044
c43p04	t	43	4	0	0	0	0	.	0	0	0
c43p05	t	43	5	0	0	0	0	.	0	0	0
c43p06	t	43	6	0	0	0	0	.	0	0	0
c43p07	t	43	7	0	0	0	0	.	0	0	0
c43p05q01	q	43	5	5	1	650	4	1243	1	1746	1786
c43p06q01	q	43	6	6	1	651	4	3421	4	1973	2005
c43p07q01	q	43	7	7	1	652	4	4321	4	2467	2507
c43p08	t	43	8	0	0	0	0	.	0	0	0
c43p09	t	43	9	0	0	0	0	.	0	0	0
c43p10	t	43	10	0	0	0	0	.	0	0	0
c43p09q01	q	43	9	8	1	653	4	3124	2	2993	3009
c43p10q01	q	43	10	9	1	654	4	3142	2	3399	3433
c43q01b146	qe	43	0	1	0	0	4	.	2	0	0
c43q02b147	qe	43	0	2	0	0	4	.	1	0	0
c43q03b148	qe	43	0	3	0	0	4	.	1	0	0
c43q04b149	qe	43	0	4	0	0	4	.	3	0	0
c44	t	44	0	0	0	0	0	.	0	0	0
c44p01	t	44	1	0	0	0	0	.	0	0	0
c44p02	t	44	2	0	0	0	0	.	0	0	0
c44p03	t	44	3	0	0	0	0	.	0	0	0
c44p04	t	44	4	0	0	0	0	.	0	0	0
c44p05	t	44	5	0	0	0	0	.	0	0	0
c44p03q01	q	44	3	1	1	659	4	1234	1	564	594
c44p05q01	q	44	5	2	1	660	4	3241	4	1167	1198
c44p06	t	44	6	0	0	0	0	.	0	0	0
c44p07	t	44	7	0	0	0	0	.	0	0	0
c44p08	t	44	8	0	0	0	0	.	0	0	0
c44p09	t	44	9	0	0	0	0	.	0	0	0
c44p07q01	q	44	7	3	1	672	4	2143	2	2189	2212
c44p09q01	q	44	9	4	1	673	4	4321	4	2852	2886
c44p10	t	44	10	0	0	0	0	.	0	0	0
c44p11	t	44	11	0	0	0	0	.	0	0	0
c44p10q01	q	44	10	5	1	674	4	4321	4	3319	3334
c44p11q01	q	44	11	6	1	675	4	3412	3	3751	3784
c44p12	t	44	12	0	0	0	0	.	0	0	0
c44p13	t	44	13	0	0	0	0	.	0	0	0
c44p14	t	44	14	0	0	0	0	.	0	0	0
c44p13q01	q	44	13	7	1	676	4	1243	1	4419	4459
c44p14q01	q	44	14	8	1	677	4	1324	1	4963	5008
c44p15	t	44	15	0	0	0	0	.	0	0	0
c44p16	t	44	16	0	0	0	0	.	0	0	0
c44p17	t	44	17	0	0	0	0	.	0	0	0
c44p16q01	q	44	16	9	1	678	4	4312	3	5381	5406
c44q01b150	qe	44	0	1	0	0	4	.	1	0	0
c44q02b151	qe	44	0	2	0	0	4	.	4	0	0
c44q03b152	qe	44	0	3	0	0	4	.	2	0	0
c45	t	45	0	0	0	0	0	.	0	0	0
c45p01	t	45	1	0	0	0	0	.	0	0	0
c45p02	t	45	2	0	0	0	0	.	0	0	0
c45p03	t	45	3	0	0	0	0	.	0	0	0
c45p04	t	45	4	0	0	0	0	.	0	0	0
c45p05	t	45	5	0	0	0	0	.	0	0	0
c45p06	t	45	6	0	0	0	0	.	0	0	0
c45p03q01	q	45	3	1	1	680	4	1423	1	820	844
c45p04q01	q	45	4	2	1	679	4	1423	1	1290	1336
c45p06q01	q	45	6	3	1	681	4	2143	2	1841	1860
c45q01b153	qe	45	0	1	0	0	4	.	3	0	0
c45q02b154	qe	45	0	2	0	0	4	.	3	0	0
c45q03b155	qe	45	0	3	0	0	4	.	3	0	0
c46	t	46	0	0	0	0	0	.	0	0	0
c46p01	t	46	1	0	0	0	0	.	0	0	0
c46p02	t	46	2	0	0	0	0	.	0	0	0
c46p01q01	q	46	1	1	1	682	4	3142	2	159	167
c46p02q01	q	46	2	2	1	683	4	2413	3	361	407
c46p02q02	q	46	2	3	2	684	4	3412	3	532	542
c46p03	t	46	3	0	0	0	0	.	0	0	0
c46p04	t	46	4	0	0	0	0	.	0	0	0
c46p05	t	46	5	0	0	0	0	.	0	0	0
c46p06	t	46	6	0	0	0	0	.	0	0	0
c46p03q01	q	46	3	4	1	685	4	1234	1	851	878
c46p03q02	q	46	3	5	2	686	4	1324	1	1102	1111
c46p06q01	q	46	6	6	1	687	4	4123	2	2071	2089
c46p07	t	46	7	0	0	0	0	.	0	0	0
c46p08	t	46	8	0	0	0	0	.	0	0	0
c46p09	t	46	9	0	0	0	0	.	0	0	0
c46q01b156	qe	46	0	1	0	0	4	.	2	0	0
c46q02b157	qe	46	0	2	0	0	4	.	1	0	0
c46q03b158	qe	46	0	3	0	0	4	.	4	0	0
c46q04b159	qe	46	0	4	0	0	4	.	3	0	0
c47	t	47	0	0	0	0	0	.	0	0	0
c47p01	t	47	1	0	0	0	0	.	0	0	0
c47p02	t	47	2	0	0	0	0	.	0	0	0
c47p03	t	47	3	0	0	0	0	.	0	0	0
c47p04	t	47	4	0	0	0	0	.	0	0	0
c47p02q01	q	47	2	1	1	688	4	2314	3	490	498
c47p04q01	q	47	4	2	1	695	4	2413	3	1043	1056
c47p05	t	47	5	0	0	0	0	.	0	0	0
c47p06	t	47	6	0	0	0	0	.	0	0	0
c47p07	t	47	7	0	0	0	0	.	0	0	0
c47p08	t	47	8	0	0	0	0	.	0	0	0
c47p07q01	q	47	7	3	1	696	4	1432	1	1859	1923
c47q01b160	qe	47	0	1	0	0	4	.	1	0	0
c47q02b161	qe	47	0	2	0	0	4	.	2	0	0
c47q03b162	qe	47	0	3	0	0	4	.	2	0	0
c48	t	48	0	0	0	0	0	.	0	0	0
c48p01	t	48	1	0	0	0	0	.	0	0	0
c48p02	t	48	2	0	0	0	0	.	0	0	0
c48p03	t	48	3	0	0	0	0	.	0	0	0
c48p04	t	48	4	0	0	0	0	.	0	0	0
c48p05	t	48	5	0	0	0	0	.	0	0	0
c48p02q01	q	48	2	1	1	697	4	1243	1	492	554
c48p03q01	q	48	3	2	1	698	4	1324	1	908	929
c48p04q01	q	48	4	3	1	699	4	4123	2	1182	1194
c48q01b163	qe	48	0	1	0	0	4	.	4	0	0
c48q02b164	qe	48	0	2	0	0	4	.	3	0	0
c48q03b165	qe	48	0	3	0	0	4	.	2	0	0
c49	t	49	0	0	0	0	0	.	0	0	0
c49p01	t	49	1	0	0	0	0	.	0	0	0
c49p02	t	49	2	0	0	0	0	.	0	0	0
c49p03	t	49	3	0	0	0	0	.	0	0	0
c49p03q01	q	49	3	1	1	700	4	3421	4	998	1009
c49p03q02	q	49	3	2	2	701	4	2134	2	1057	1112
c49p04	t	49	4	0	0	0	0	.	0	0	0
c49p05	t	49	5	0	0	0	0	.	0	0	0
c49p05q01	q	49	5	3	1	702	4	1243	1	1674	1705
c49p06	t	49	6	0	0	0	0	.	0	0	0
c49p07	t	49	7	0	0	0	0	.	0	0	0
c49p08	t	49	8	0	0	0	0	.	0	0	0
c49p09	t	49	9	0	0	0	0	.	0	0	0
c49p10	t	49	10	0	0	0	0	.	0	0	0
c49p11	t	49	11	0	0	0	0	.	0	0	0
c49p12	t	49	12	0	0	0	0	.	0	0	0
c49p09q01	q	49	9	4	1	703	4	4312	3	3032	3078
c49p10q01	q	49	10	5	1	704	4	2314	3	3560	3585
c49p12q01	q	49	12	6	1	705	4	4132	2	4211	4229
c49q01b166	qe	49	0	1	0	0	4	.	1	0	0
c49q02b167	qe	49	0	2	0	0	4	.	4	0	0
c49q03b168	qe	49	0	3	0	0	4	.	1	0	0
c50	t	50	0	0	0	0	0	.	0	0	0
c50p01	t	50	1	0	0	0	0	.	0	0	0
c50p02	t	50	2	0	0	0	0	.	0	0	0
c50p01q01	q	50	1	1	1	706	4	2431	4	221	248
c50p02q01	q	50	2	2	1	707	4	1432	1	519	547
c50p03	t	50	3	0	0	0	0	.	0	0	0
c50p04	t	50	4	0	0	0	0	.	0	0	0
c50p05	t	50	5	0	0	0	0	.	0	0	0
c50p06	t	50	6	0	0	0	0	.	0	0	0
c50p07	t	50	7	0	0	0	0	.	0	0	0
c50p06q01	q	50	6	3	1	708	4	3421	4	2040	2070
c50q01b169	qe	50	0	1	0	0	4	.	2	0	0
c50q02b170	qe	50	0	2	0	0	4	.	1	0	0
c50q03b171	qe	50	0	3	0	0	4	.	3	0	0
c50q04b172	qe	50	0	4	0	0	4	.	2	0	0
