phase	stim	ans.correct	ans	is.correct	rt
1	c01q01b001	3	3	1	9127.532
1	c01q02b002	2	3	0	16714.962
1	c01q03b003	3	1	0	7796.951
1	c01q04b004	4	4	1	9115.002
1	c02q01b005	1	3	0	13652.829
1	c02q02b006	2	2	1	11411.58
1	c02q03b007	3	3	1	8606.77
1	c02q04b008	3	3	1	10386.417
1	c03q01b009	1	3	0	13115.693
1	c03q02b010	2	2	1	4891.208
1	c03q03b011	3	1	0	7409.636
1	c03q04b012	2	4	0	12177.972
1	c04q01b013	1	1	1	13512.323
1	c04q02b014	3	3	1	17284.421
1	c04q03b015	2	4	0	12821.988
1	c04q04b016	3	3	1	3885.449
1	c05q01b017	2	2	1	13957.358
1	c05q02b018	3	3	1	11823.305
1	c05q03b019	3	3	1	6788.154
1	c06q01b020	3	1	0	27142.152
1	c06q02b021	1	1	1	8225.276
1	c06q03b022	1	1	1	6311.796
1	c06q04b023	3	1	0	10372.056
1	c07q01b024	2	2	1	6836.711
1	c07q02b025	1	4	0	13893.053
1	c07q03b026	3	2	0	12412.535
1	c08q01b027	3	3	1	3574.396
1	c08q02b028	2	2	1	5786.802
1	c08q03b029	3	2	0	7802.405
