phase	stim	type	t0	t_disp
1	title	t	111498.555	4271.57
1	c01	t	128319.602	2232.593
1	c01p01	t	130938.55	123684.524
1	c01p01q01	q	254990.663	8426.454
1	c01p01q02	q	263786.648	5102.482
1	c01p01q03	q	269257.642	24751.151
1	c01p01q04	q	294381.645	11466.345
1	c01p01q05	q	306216.646	3239.435
1	c01p01q06	q	309823.641	4738.028
1	c01p01q07	q	314930.641	9398.28
1	c01p02	t	324696.552	188556.756
1	c01p03	t	513623.562	165442.784
1	c01p04	t	679432.553	151064.452
1	c01p02q01	q	830865.646	11082.02
1	c01p03q01	q	842319.647	9586.892
1	c01p04q01	q	852275.641	2902.237
1	c01p04q02	q	855546.642	9862.978
1	c01p05	t	865777.555	16254.138
1	c01q01b001	qe	882452.644	5228.858
1	c01q02b002	qe	888048.646	11856.127
1	c01q03b003	qe	900272.644	5487.998
1	c01q04b004	qe	906128.65	11761.838
1	c02	t	924796.629	2698.726
1	c02p01	t	927862.547	140623.062
1	c02p02	t	1068855.546	101213.369
1	c02p03	t	1170436.547	95552.179
1	c02p01q01	q	1266402.643	13417.979
1	c02p01q02	q	1280188.644	6832.289
1	c02p03q01	q	1287387.641	3841.467
1	c02p04	t	1291597.555	127652.094
1	c02p05	t	1419637.559	115554.905
1	c02p06	t	1535560.549	85608.612
1	c02p04q01	q	1621537.641	4529.49
1	c02p05q01	q	1626435.64	5359.355
1	c02q01b005	qe	1632167.644	8097.682
1	c02q02b006	qe	1640633.66	8208.481
1	c02q03b007	qe	1649210.653	8141.964
1	c02q04b008	qe	1657720.641	14800.97
1	c03	t	1674761.598	2301.293
1	c03p01	t	1677431.547	271653.754
1	c03p02	t	1949453.546	142989.026
1	c03p03	t	2092809.601	152624.433
1	c03p04	t	2245839.544	108111.923
1	c03p05	t	2354318.55	45425.722
1	c03p01q01	q	2400112.653	6752.574
1	c03p01q02	q	2407233.641	4511.404
1	c03p02q01	q	2412119.649	31824.818
1	c03p02q02	q	2444312.643	6575.867
1	c03p02q03	q	2451255.647	7632.945
1	c03p04q01	q	2459256.646	5240.971
1	c03q01b009	qe	2464871.649	11905.177
1	c03q02b010	qe	2477144.65	4672.174
1	c03q03b011	qe	2482185.644	14062.899
1	c03q04b012	qe	2496616.651	23318.038
1	c04	t	2522728.557	2980.732
1	c04p01	t	2526077.552	94783.783
1	c04p02	t	2621229.545	116021.246
1	c04p03	t	2737618.555	121239.276
1	c04p02q01	q	2859266.642	11624.819
1	c04p03q01	q	2871259.644	7183.016
1	c04p04	t	2878810.549	139573.51
1	c04p05	t	3018751.554	133936.44
1	c04p05q01	q	3153072.657	9168.517
1	c04p05q02	q	3162607.662	10320.361
1	c04p06	t	3173296.546	34310.714
1	c04q01b013	qe	3207975.642	9472.806
1	c04q02b014	qe	3217827.663	9003.327
1	c04q03b015	qe	3227200.65	7231.364
1	c04q04b016	qe	3234800.644	6359.237
1	c05	t	3243969.603	1716.819
1	c05p01	t	3246056.552	167963.007
1	c05p02	t	3414387.549	136438.128
1	c05p03	t	3551194.551	81550.935
1	c05p01q01	q	3633112.652	8098.753
1	c05p02q01	q	3641580.671	3447.178
1	c05p02q02	q	3645394.65	6735.816
1	c05q01b017	qe	3652500.644	11469.631
1	c05q02b018	qe	3664338.645	7232.128
1	c05q03b019	qe	3671966.65	7124.628
1	c06	t	3682531.607	1254.222
1	c06p01	t	3684154.554	154484.277
1	c06p01q01	q	3839007.642	2610.508
1	c06p01q02	q	3842006.64	4714.773
1	c06p01q03	q	3847088.648	3816.372
1	c06p02	t	3851273.546	137780.516
1	c06p03	t	3989422.555	219052.837
1	c06p02q01	q	4208874.642	9018.212
1	c06p02q02	q	4218261.645	5303.696
1	c06p02q03	q	4223932.642	12302.901
1	c06p03q01	q	4236602.646	5961.777
1	c06p03q02	q	4242935.664	11252.54
1	c06p03q03	q	4254556.647	3312.195
1	c06p04	t	4258238.548	34139.065
1	c06q01b020	qe	4292745.651	21753.702
1	c06q02b021	qe	4314871.644	4828.475
1	c06q03b022	qe	4320069.649	6517.531
1	c06q04b023	qe	4326955.651	13327.87
2	c07z	t	56735.019	8600.326
2	c07p01	t	65704.949	121813.287
2	c07p02	t	187888.968	113059.958
2	c07p03	t	301318.956	121323.616
2	c07p04	t	423022.972	70964.639
2	c07q01b024	qe	494357.111	8327.465
2	c07q02b025	qe	503059.099	7328.145
2	c07q03b026	qe	510761.093	6931.108
2	c08z	t	519633.005	4072.397
2	c08p01	t	524073.948	140653.903
2	c08p02	t	665097.968	93325.798
2	c08p03	t	758792.947	123237.346
2	c08p04	t	882411.015	77154.644
2	c08q01b027	qe	959933.054	3018.42
2	c08q02b028	qe	963327.059	9102.539
2	c08q03b029	qe	972803.052	9906.994
2	c09z	t	986715.007	4346.455
2	c09p01	t	991429.921	120277.346
2	c09p02	t	1112072.922	91433.687
2	c09p03	t	1203874.908	106135.433
2	c09p04	t	1310386.918	59205.08
2	c09p05	t	1369959.928	98183.791
2	c09p06	t	1468511.919	64126.125
2	c09q01b030	qe	1533007.04	4856.49
2	c09q02b031	qe	1538237.041	3243.559
2	c09q03b032	qe	1541856.032	3840.692
2	c09q04b033	qe	1546071.083	4449.747
2	c10z	t	1552387.987	930.468
2	c10p01	t	1553694.92	149382.985
2	c10p02	t	1703446.97	96491.906
2	c10p03	t	1800306.946	154326.272
2	c10p04	t	1955000.956	135966.74
2	c10p05	t	2091346.96	110124.072
2	c10p06	t	2201840.953	84644.596
2	c10p07	t	2286853.942	20223.743
2	c10q01b034	qe	2307448.091	7414.456
2	c10q02b035	qe	2315239.108	4081.007
2	c11z	t	2327603.992	1634.256
2	c11p01	t	2329605.947	137933.937
2	c11p02	t	2467945.971	127617.382
2	c11p03	t	2595972.939	97627.646
2	c11p04	t	2693969.953	140431.106
2	c11q01b036	qe	2834771.084	4334.147
2	c11q02b037	qe	2839479.089	3026.931
2	c12z	t	2844358.017	5089.917
2	c12p01	t	2849818.954	119572.255
2	c12p02	t	2969760.968	110973.454
2	c12p03	t	3081165.958	86109.832
2	c12p04	t	3167666.989	83416.335
2	c12p05	t	3251451.964	121877.483
2	c12p06	t	3373697.956	3199.524
2	c12q01b038	qe	3377266.091	3520.433
2	c12q02b039	qe	3381163.08	8568.468
2	c12q03b040	qe	3390105.07	4297.947
2	c12q04b041	qe	3394775.083	17603.076
2	c13z	t	3415528.0	1856.576
2	c13p01	t	3417753.964	57974.616
2	c13p02	t	3476097.94	48637.365
2	c13p03	t	3525103.938	56024.751
2	c13p04	t	3581548.961	79241.627
2	c13p05	t	3661179.955	54499.198
2	c13p06	t	3716047.949	104955.994
2	c13p07	t	3821372.967	128679.166
2	c13p08	t	3950421.962	75236.371
2	c13p09	t	4026051.941	65012.992
2	c13q01b042	qe	4091435.119	12366.976
2	c13q02b043	qe	4104177.086	8290.831
2	c13q03b044	qe	4112842.094	6705.839
2	c14z	t	4123854.997	1945.897
2	c14p01	t	4126171.94	150555.419
2	c14p02	t	4277095.948	131598.422
2	c14p03	t	4409061.951	107454.344
2	c14p04	t	4516923.949	186519.259
2	c14p05	t	4703811.941	21823.463
2	c14q01b045	qe	4726005.083	6071.797
2	c14q02b046	qe	4732450.131	7169.193
2	c15z	t	4741881.001	2130.589
2	c15p01	t	4744379.956	93829.359
2	c15p02	t	4838577.909	55949.884
2	c15p03	t	4894945.955	79670.289
2	c15p04	t	4975001.948	89812.943
2	c15p05	t	5065184.947	83308.145
2	c15p06	t	5148861.943	91694.953
2	c15p07	t	5240925.948	83981.184
2	c15p08	t	5325295.971	94834.12
2	c15p09	t	5420498.977	13487.749
2	c15q01b047	qe	5434357.092	9335.868
2	c15q02b048	qe	5444066.085	7593.788
2	c15q03b049	qe	5452034.085	12410.275
2	c15q04b050	qe	5464819.092	5505.158
2	c16z	t	5472193.003	6656.967
