stim	ans.correct	ans	is.correct	rt
c01p01q01	3	3	1	9564.874
c01p01q02	2	2	1	6762.623
c01p01q03	3	B	0	16910.592
c01p01q04	1	2	0	13283.73
c01p01q05	2	2	1	4733.382
c01p01q06	4	2	0	5523.942
c01p01q07	2	2	1	10324.811
c01p02q01	2	3	0	10693.068
c01p03q01	2	2	1	7643.252
c01p04q01	3	A	0	8955.107
c01p04q02	2	2	1	8886.843
c02p01q01	4	4	1	10590.358
c02p01q02	4	4	1	6967.107
c02p03q01	2	B	0	9473.104
c02p04q01	1	1	1	9227.182
c02p05q01	2	2	1	8133.107
c03p01q01	4	4	1	8288.269
c03p01q02	2	1	0	2867.81
c03p02q01	2	B	0	11803.131
c03p02q02	2	2	1	6357.384
c03p02q03	1	A	0	9316.121
c03p04q01	1	1	1	3943.364
c04p02q01	4	B	0	25335.9
c04p03q01	2	2	1	7779.29
c04p05q01	3	1	0	9687.418
c04p05q02	1	1	1	11617.566
c05p01q01	2	A	0	19364.658
c05p02q01	4	4	1	7237.126
c05p02q02	2	2	1	7354.869
c06p01q01	2	3	0	4773.749
c06p01q02	1	B	0	6059.489
c06p01q03	2	B	0	15627.401
c06p02q01	4	2	0	12368.105
c06p02q02	3	1	0	6954.887
c06p02q03	4	4	1	3771.829
c06p03q01	3	3	1	5845.267
c06p03q02	2	2	1	5803.219
c06p03q03	4	4	1	3715.78
